[gd_scene load_steps=4 format=2]

[ext_resource path="res://models/blendfiles/Material_003.material" type="Material" id=1]

[sub_resource type="ArrayMesh" id=1]
resource_name = "Corner"
surfaces/0 = {
"aabb": AABB( -0.5, -0.2, -0.5, 0.64734, 0.2, 0.64734 ),
"array_data": PoolByteArray( 47, 39, 32, 61, 104, 118, 174, 189, 204, 204, 76, 190, 0, 127, 0, 0, 127, 0, 0, 127, 32, 58, 0, 56, 36, 39, 32, 61, 104, 118, 174, 189, 0, 0, 0, 191, 0, 127, 0, 0, 127, 0, 0, 127, 32, 58, 0, 56, 76, 39, 32, 189, 104, 118, 174, 189, 0, 0, 0, 191, 0, 127, 0, 0, 127, 0, 0, 127, 255, 57, 0, 54, 65, 39, 32, 189, 104, 118, 174, 189, 204, 204, 76, 190, 0, 127, 0, 0, 126, 0, 0, 127, 255, 57, 0, 56, 50, 224, 22, 190, 0, 0, 0, 0, 255, 255, 255, 190, 129, 0, 0, 0, 0, 127, 0, 129, 0, 57, 0, 59, 50, 224, 22, 190, 104, 118, 174, 189, 255, 255, 255, 190, 129, 0, 0, 0, 127, 0, 0, 129, 198, 56, 0, 58, 47, 224, 22, 190, 104, 118, 174, 189, 203, 204, 76, 190, 129, 0, 0, 0, 0, 127, 0, 129, 198, 56, 0, 58, 47, 224, 22, 190, 0, 0, 0, 0, 203, 204, 76, 190, 129, 0, 0, 0, 0, 127, 0, 129, 0, 57, 0, 58, 36, 39, 32, 61, 0, 0, 0, 0, 0, 0, 0, 191, 129, 0, 0, 0, 0, 127, 0, 127, 67, 58, 0, 54, 36, 39, 32, 61, 104, 118, 174, 189, 0, 0, 0, 191, 129, 0, 0, 0, 127, 0, 0, 129, 32, 58, 0, 56, 47, 39, 32, 61, 104, 118, 174, 189, 204, 204, 76, 190, 129, 0, 0, 0, 0, 127, 0, 127, 32, 58, 0, 56, 47, 39, 32, 61, 0, 0, 0, 0, 204, 204, 76, 190, 129, 0, 0, 0, 0, 127, 0, 127, 67, 58, 0, 56, 43, 224, 22, 62, 0, 0, 0, 0, 205, 204, 76, 190, 127, 0, 0, 0, 0, 127, 0, 127, 0, 57, 0, 58, 43, 224, 22, 62, 104, 118, 174, 189, 205, 204, 76, 190, 127, 0, 0, 0, 0, 126, 0, 127, 198, 56, 0, 58, 40, 224, 22, 62, 104, 118, 174, 189, 0, 0, 0, 191, 127, 0, 0, 0, 0, 127, 0, 127, 198, 56, 0, 59, 40, 224, 22, 62, 0, 0, 0, 0, 0, 0, 0, 191, 127, 0, 0, 0, 0, 127, 0, 127, 0, 57, 0, 59, 43, 224, 22, 62, 226, 177, 211, 189, 205, 204, 76, 190, 127, 0, 0, 0, 0, 127, 0, 127, 162, 56, 0, 58, 40, 224, 22, 62, 226, 177, 211, 189, 0, 0, 0, 191, 127, 0, 0, 0, 0, 127, 0, 127, 162, 56, 0, 59, 50, 224, 22, 190, 104, 118, 174, 189, 255, 255, 255, 190, 129, 0, 0, 0, 0, 127, 0, 129, 198, 56, 0, 59, 50, 224, 22, 190, 226, 177, 211, 189, 255, 255, 255, 190, 129, 0, 0, 0, 127, 0, 0, 129, 162, 56, 0, 58, 47, 224, 22, 190, 226, 177, 211, 189, 203, 204, 76, 190, 129, 0, 0, 0, 0, 127, 0, 129, 162, 56, 0, 58, 47, 224, 22, 190, 104, 118, 174, 189, 203, 204, 76, 190, 129, 0, 0, 0, 0, 127, 0, 129, 198, 56, 0, 58, 65, 39, 32, 189, 0, 0, 0, 0, 204, 204, 76, 190, 127, 0, 0, 0, 0, 127, 0, 129, 67, 58, 0, 56, 65, 39, 32, 189, 104, 118, 174, 189, 204, 204, 76, 190, 127, 0, 0, 0, 0, 127, 0, 129, 32, 58, 0, 56, 76, 39, 32, 189, 104, 118, 174, 189, 0, 0, 0, 191, 127, 0, 0, 0, 0, 127, 0, 129, 32, 58, 0, 54, 76, 39, 32, 189, 0, 0, 0, 0, 0, 0, 0, 191, 127, 0, 0, 0, 0, 127, 0, 129, 67, 58, 0, 54, 65, 39, 32, 189, 0, 0, 0, 0, 204, 204, 76, 190, 0, 127, 0, 0, 213, 0, 137, 129, 67, 58, 0, 56, 76, 39, 32, 189, 0, 0, 0, 0, 0, 0, 0, 191, 0, 127, 0, 0, 213, 0, 137, 129, 67, 58, 0, 54, 50, 224, 22, 190, 0, 0, 0, 0, 255, 255, 255, 190, 0, 127, 0, 0, 213, 0, 137, 129, 0, 59, 0, 56, 47, 224, 22, 190, 0, 0, 0, 0, 203, 204, 76, 190, 0, 127, 0, 0, 127, 0, 0, 127, 0, 59, 0, 56, 50, 224, 22, 190, 226, 177, 211, 189, 255, 255, 255, 190, 142, 201, 0, 0, 201, 114, 0, 129, 162, 56, 0, 59, 216, 204, 204, 189, 205, 204, 76, 190, 255, 255, 255, 190, 142, 201, 0, 0, 127, 0, 0, 129, 75, 56, 0, 58, 210, 204, 204, 189, 205, 204, 76, 190, 203, 204, 76, 190, 142, 201, 0, 0, 201, 114, 0, 129, 75, 56, 0, 58, 47, 224, 22, 190, 226, 177, 211, 189, 203, 204, 76, 190, 142, 201, 0, 0, 201, 114, 0, 129, 162, 56, 0, 58, 43, 224, 22, 62, 0, 0, 0, 0, 205, 204, 76, 190, 0, 127, 0, 0, 127, 0, 0, 127, 0, 59, 0, 56, 40, 224, 22, 62, 0, 0, 0, 0, 0, 0, 0, 191, 0, 127, 0, 0, 126, 0, 0, 127, 0, 59, 0, 54, 36, 39, 32, 61, 0, 0, 0, 0, 0, 0, 0, 191, 0, 127, 0, 0, 127, 0, 0, 127, 67, 58, 0, 54, 47, 39, 32, 61, 0, 0, 0, 0, 204, 204, 76, 190, 0, 127, 0, 0, 127, 0, 0, 127, 67, 58, 0, 56, 43, 224, 22, 62, 226, 177, 211, 189, 205, 204, 76, 190, 114, 201, 0, 0, 18, 38, 119, 127, 162, 56, 0, 58, 202, 204, 204, 61, 205, 204, 76, 190, 205, 204, 76, 190, 114, 201, 0, 0, 127, 0, 0, 127, 75, 56, 0, 58, 196, 204, 204, 61, 205, 204, 76, 190, 0, 0, 0, 191, 114, 201, 0, 0, 18, 38, 119, 127, 75, 56, 0, 58, 40, 224, 22, 62, 226, 177, 211, 189, 0, 0, 0, 191, 114, 201, 0, 0, 18, 38, 119, 127, 162, 56, 0, 59, 235, 114, 120, 189, 0, 0, 0, 0, 153, 214, 244, 189, 122, 0, 32, 0, 127, 0, 0, 129, 67, 58, 0, 56, 235, 114, 120, 189, 104, 118, 174, 189, 153, 214, 244, 189, 122, 0, 32, 0, 127, 0, 0, 129, 32, 58, 0, 56, 65, 39, 32, 189, 104, 118, 174, 189, 204, 204, 76, 190, 122, 0, 32, 0, 127, 0, 0, 129, 32, 58, 0, 56, 65, 39, 32, 189, 0, 0, 0, 0, 204, 204, 76, 190, 122, 0, 32, 0, 127, 0, 0, 129, 67, 58, 0, 56, 47, 224, 22, 190, 226, 177, 211, 189, 203, 204, 76, 190, 146, 202, 227, 0, 127, 0, 0, 127, 162, 56, 0, 58, 210, 204, 204, 189, 205, 204, 76, 190, 203, 204, 76, 190, 146, 202, 227, 0, 127, 0, 0, 127, 75, 56, 0, 58, 244, 60, 232, 189, 205, 204, 76, 190, 152, 153, 25, 190, 146, 202, 227, 0, 127, 0, 0, 127, 75, 56, 0, 58, 168, 25, 30, 190, 226, 177, 211, 189, 123, 214, 49, 190, 146, 202, 227, 0, 127, 0, 0, 127, 162, 56, 0, 58, 47, 224, 22, 190, 0, 0, 0, 0, 203, 204, 76, 190, 134, 0, 224, 0, 127, 0, 0, 127, 0, 57, 0, 58, 47, 224, 22, 190, 104, 118, 174, 189, 203, 204, 76, 190, 134, 0, 224, 0, 127, 0, 0, 127, 198, 56, 0, 58, 168, 25, 30, 190, 104, 118, 174, 189, 123, 214, 49, 190, 134, 0, 224, 0, 127, 0, 0, 127, 198, 56, 0, 58, 168, 25, 30, 190, 0, 0, 0, 0, 123, 214, 49, 190, 134, 0, 224, 0, 127, 0, 0, 127, 0, 57, 0, 58, 47, 224, 22, 190, 104, 118, 174, 189, 203, 204, 76, 190, 134, 0, 224, 0, 127, 0, 0, 127, 198, 56, 0, 58, 47, 224, 22, 190, 226, 177, 211, 189, 203, 204, 76, 190, 134, 0, 224, 0, 127, 0, 0, 127, 162, 56, 0, 58, 168, 25, 30, 190, 226, 177, 211, 189, 123, 214, 49, 190, 134, 0, 224, 0, 127, 0, 0, 127, 162, 56, 0, 58, 168, 25, 30, 190, 104, 118, 174, 189, 123, 214, 49, 190, 134, 0, 224, 0, 127, 0, 0, 127, 198, 56, 0, 58, 134, 142, 231, 59, 104, 118, 174, 189, 254, 194, 164, 189, 0, 127, 0, 0, 127, 0, 0, 127, 32, 58, 0, 56, 47, 39, 32, 61, 104, 118, 174, 189, 204, 204, 76, 190, 0, 127, 0, 0, 127, 0, 0, 127, 32, 58, 0, 56, 65, 39, 32, 189, 104, 118, 174, 189, 204, 204, 76, 190, 0, 127, 0, 0, 126, 0, 0, 127, 255, 57, 0, 56, 235, 114, 120, 189, 104, 118, 174, 189, 153, 214, 244, 189, 0, 127, 0, 0, 127, 0, 0, 127, 255, 57, 0, 56, 47, 39, 32, 61, 0, 0, 0, 0, 204, 204, 76, 190, 134, 0, 224, 0, 127, 0, 0, 127, 67, 58, 0, 56, 47, 39, 32, 61, 104, 118, 174, 189, 204, 204, 76, 190, 134, 0, 224, 0, 127, 0, 0, 127, 32, 58, 0, 56, 134, 142, 231, 59, 104, 118, 174, 189, 254, 194, 164, 189, 134, 0, 224, 0, 127, 0, 0, 127, 32, 58, 0, 56, 134, 142, 231, 59, 0, 0, 0, 0, 254, 194, 164, 189, 134, 0, 224, 0, 127, 0, 0, 127, 67, 58, 0, 56, 195, 114, 206, 61, 226, 177, 211, 189, 132, 178, 215, 188, 110, 202, 29, 0, 127, 0, 0, 129, 162, 56, 0, 58, 206, 248, 116, 61, 205, 204, 76, 190, 204, 204, 76, 189, 110, 202, 29, 0, 127, 0, 0, 129, 75, 56, 0, 58, 202, 204, 204, 61, 205, 204, 76, 190, 205, 204, 76, 190, 110, 202, 29, 0, 127, 0, 0, 129, 75, 56, 0, 58, 43, 224, 22, 62, 226, 177, 211, 189, 205, 204, 76, 190, 110, 202, 29, 0, 127, 0, 0, 129, 162, 56, 0, 58, 235, 114, 120, 189, 0, 0, 0, 0, 153, 214, 244, 189, 0, 127, 0, 0, 127, 0, 0, 127, 67, 58, 0, 56, 65, 39, 32, 189, 0, 0, 0, 0, 204, 204, 76, 190, 0, 127, 0, 0, 213, 0, 137, 129, 67, 58, 0, 56, 47, 224, 22, 190, 0, 0, 0, 0, 203, 204, 76, 190, 0, 127, 0, 0, 127, 0, 0, 127, 0, 59, 0, 56, 168, 25, 30, 190, 0, 0, 0, 0, 123, 214, 49, 190, 0, 127, 0, 0, 127, 0, 0, 127, 0, 59, 0, 56, 195, 114, 206, 61, 0, 0, 0, 0, 132, 178, 215, 188, 122, 0, 32, 0, 127, 0, 0, 129, 0, 57, 0, 58, 195, 114, 206, 61, 104, 118, 174, 189, 132, 178, 215, 188, 122, 0, 32, 0, 127, 0, 0, 129, 198, 56, 0, 58, 43, 224, 22, 62, 104, 118, 174, 189, 205, 204, 76, 190, 122, 0, 32, 0, 127, 0, 0, 129, 198, 56, 0, 58, 43, 224, 22, 62, 0, 0, 0, 0, 205, 204, 76, 190, 122, 0, 32, 0, 127, 0, 0, 129, 0, 57, 0, 58, 195, 114, 206, 61, 104, 118, 174, 189, 132, 178, 215, 188, 122, 0, 32, 0, 127, 0, 0, 129, 198, 56, 0, 58, 195, 114, 206, 61, 226, 177, 211, 189, 132, 178, 215, 188, 122, 0, 32, 0, 127, 0, 0, 129, 162, 56, 0, 58, 43, 224, 22, 62, 226, 177, 211, 189, 205, 204, 76, 190, 122, 0, 32, 0, 127, 0, 0, 129, 162, 56, 0, 58, 43, 224, 22, 62, 104, 118, 174, 189, 205, 204, 76, 190, 122, 0, 32, 0, 127, 0, 0, 129, 198, 56, 0, 58, 161, 214, 244, 189, 0, 0, 0, 0, 223, 114, 120, 189, 89, 0, 89, 0, 127, 0, 0, 129, 67, 58, 0, 56, 161, 214, 244, 189, 104, 118, 174, 189, 223, 114, 120, 189, 89, 0, 89, 0, 127, 0, 0, 129, 32, 58, 0, 56, 235, 114, 120, 189, 104, 118, 174, 189, 153, 214, 244, 189, 89, 0, 89, 0, 127, 0, 0, 129, 32, 58, 0, 56, 235, 114, 120, 189, 0, 0, 0, 0, 153, 214, 244, 189, 89, 0, 89, 0, 127, 0, 0, 129, 67, 58, 0, 56, 134, 142, 231, 59, 104, 118, 174, 189, 254, 194, 164, 189, 0, 127, 0, 0, 127, 0, 0, 127, 32, 58, 0, 56, 235, 114, 120, 189, 104, 118, 174, 189, 153, 214, 244, 189, 0, 127, 0, 0, 127, 0, 0, 127, 255, 57, 0, 56, 161, 214, 244, 189, 104, 118, 174, 189, 223, 114, 120, 189, 0, 127, 0, 0, 127, 0, 0, 127, 255, 57, 0, 56, 4, 195, 164, 189, 104, 118, 174, 189, 202, 142, 231, 59, 0, 127, 0, 0, 127, 0, 0, 127, 32, 58, 0, 56, 168, 25, 30, 190, 226, 177, 211, 189, 123, 214, 49, 190, 175, 202, 175, 0, 127, 0, 0, 127, 162, 56, 0, 58, 244, 60, 232, 189, 205, 204, 76, 190, 152, 153, 25, 190, 175, 202, 175, 0, 127, 0, 0, 127, 75, 56, 0, 58, 157, 153, 25, 190, 205, 204, 76, 190, 235, 60, 232, 189, 175, 202, 175, 0, 127, 0, 0, 127, 75, 56, 0, 58, 128, 214, 49, 190, 226, 177, 211, 189, 164, 25, 30, 190, 175, 202, 175, 0, 127, 0, 0, 127, 162, 56, 0, 58, 168, 25, 30, 190, 0, 0, 0, 0, 123, 214, 49, 190, 167, 0, 167, 0, 127, 0, 0, 127, 0, 57, 0, 58, 168, 25, 30, 190, 104, 118, 174, 189, 123, 214, 49, 190, 167, 0, 167, 0, 127, 0, 0, 127, 198, 56, 0, 58, 128, 214, 49, 190, 104, 118, 174, 189, 164, 25, 30, 190, 167, 0, 167, 0, 127, 0, 0, 127, 198, 56, 0, 58, 128, 214, 49, 190, 0, 0, 0, 0, 164, 25, 30, 190, 167, 0, 167, 0, 127, 0, 0, 127, 0, 57, 0, 58, 168, 25, 30, 190, 226, 177, 211, 189, 123, 214, 49, 190, 167, 0, 167, 0, 127, 0, 0, 127, 162, 56, 0, 58, 128, 214, 49, 190, 226, 177, 211, 189, 164, 25, 30, 190, 167, 0, 167, 0, 127, 0, 0, 127, 162, 56, 0, 58, 134, 142, 231, 59, 0, 0, 0, 0, 254, 194, 164, 189, 167, 0, 167, 0, 127, 0, 0, 127, 67, 58, 0, 56, 134, 142, 231, 59, 104, 118, 174, 189, 254, 194, 164, 189, 167, 0, 167, 0, 127, 0, 0, 127, 32, 58, 0, 56, 4, 195, 164, 189, 104, 118, 174, 189, 202, 142, 231, 59, 167, 0, 167, 0, 127, 0, 0, 127, 32, 58, 0, 56, 4, 195, 164, 189, 0, 0, 0, 0, 202, 142, 231, 59, 167, 0, 167, 0, 127, 0, 0, 127, 67, 58, 0, 56, 144, 178, 215, 188, 226, 177, 211, 189, 198, 114, 206, 61, 81, 202, 81, 0, 127, 0, 0, 129, 162, 56, 0, 58, 214, 204, 76, 189, 205, 204, 76, 190, 212, 248, 116, 61, 81, 202, 81, 0, 127, 0, 0, 129, 75, 56, 0, 58, 206, 248, 116, 61, 205, 204, 76, 190, 204, 204, 76, 189, 81, 202, 81, 0, 127, 0, 0, 129, 75, 56, 0, 58, 195, 114, 206, 61, 226, 177, 211, 189, 132, 178, 215, 188, 81, 202, 81, 0, 127, 0, 0, 129, 162, 56, 0, 58, 235, 114, 120, 189, 0, 0, 0, 0, 153, 214, 244, 189, 0, 127, 0, 0, 127, 0, 0, 127, 67, 58, 0, 56, 168, 25, 30, 190, 0, 0, 0, 0, 123, 214, 49, 190, 0, 127, 0, 0, 127, 0, 0, 127, 0, 59, 0, 56, 128, 214, 49, 190, 0, 0, 0, 0, 164, 25, 30, 190, 0, 127, 0, 0, 127, 0, 0, 127, 0, 59, 0, 56, 161, 214, 244, 189, 0, 0, 0, 0, 223, 114, 120, 189, 0, 127, 0, 0, 127, 0, 0, 127, 67, 58, 0, 56, 144, 178, 215, 188, 0, 0, 0, 0, 198, 114, 206, 61, 89, 0, 89, 0, 127, 0, 0, 129, 0, 57, 0, 58, 144, 178, 215, 188, 104, 118, 174, 189, 198, 114, 206, 61, 89, 0, 89, 0, 127, 0, 0, 129, 198, 56, 0, 58, 195, 114, 206, 61, 104, 118, 174, 189, 132, 178, 215, 188, 89, 0, 89, 0, 127, 0, 0, 129, 198, 56, 0, 58, 195, 114, 206, 61, 0, 0, 0, 0, 132, 178, 215, 188, 89, 0, 89, 0, 127, 0, 0, 129, 0, 57, 0, 58, 144, 178, 215, 188, 226, 177, 211, 189, 198, 114, 206, 61, 89, 0, 89, 0, 127, 0, 0, 129, 162, 56, 0, 58, 195, 114, 206, 61, 226, 177, 211, 189, 132, 178, 215, 188, 89, 0, 89, 0, 127, 0, 0, 129, 162, 56, 0, 58, 128, 214, 49, 190, 0, 0, 0, 0, 164, 25, 30, 190, 224, 0, 134, 0, 127, 0, 0, 127, 0, 57, 0, 58, 128, 214, 49, 190, 104, 118, 174, 189, 164, 25, 30, 190, 224, 0, 134, 0, 127, 0, 0, 127, 198, 56, 0, 58, 207, 204, 76, 190, 104, 118, 174, 189, 45, 224, 22, 190, 224, 0, 134, 0, 127, 0, 0, 127, 198, 56, 0, 58, 207, 204, 76, 190, 0, 0, 0, 0, 45, 224, 22, 190, 224, 0, 134, 0, 127, 0, 0, 127, 0, 57, 0, 58, 128, 214, 49, 190, 104, 118, 174, 189, 164, 25, 30, 190, 224, 0, 134, 0, 127, 0, 0, 127, 198, 56, 0, 58, 128, 214, 49, 190, 226, 177, 211, 189, 164, 25, 30, 190, 224, 0, 134, 0, 127, 0, 0, 127, 162, 56, 0, 58, 207, 204, 76, 190, 226, 177, 211, 189, 45, 224, 22, 190, 224, 0, 134, 0, 127, 0, 0, 127, 162, 56, 0, 58, 207, 204, 76, 190, 104, 118, 174, 189, 45, 224, 22, 190, 224, 0, 134, 0, 127, 0, 0, 127, 198, 56, 0, 58, 4, 195, 164, 189, 0, 0, 0, 0, 202, 142, 231, 59, 224, 0, 134, 0, 127, 0, 0, 127, 67, 58, 0, 56, 4, 195, 164, 189, 104, 118, 174, 189, 202, 142, 231, 59, 224, 0, 134, 0, 127, 0, 0, 127, 32, 58, 0, 56, 207, 204, 76, 190, 104, 118, 174, 189, 51, 39, 32, 61, 224, 0, 134, 0, 127, 0, 0, 127, 32, 58, 0, 56, 207, 204, 76, 190, 0, 0, 0, 0, 51, 39, 32, 61, 224, 0, 134, 0, 127, 0, 0, 127, 67, 58, 0, 56, 207, 204, 76, 190, 226, 177, 211, 189, 44, 224, 22, 62, 29, 202, 110, 0, 127, 0, 0, 129, 162, 56, 0, 58, 207, 204, 76, 190, 205, 204, 76, 190, 202, 204, 204, 61, 29, 202, 110, 0, 127, 0, 0, 129, 75, 56, 0, 58, 214, 204, 76, 189, 205, 204, 76, 190, 212, 248, 116, 61, 29, 202, 110, 0, 127, 0, 0, 129, 75, 56, 0, 58, 144, 178, 215, 188, 226, 177, 211, 189, 198, 114, 206, 61, 29, 202, 110, 0, 127, 0, 0, 129, 162, 56, 0, 58, 207, 204, 76, 190, 0, 0, 0, 0, 45, 224, 22, 190, 0, 127, 0, 0, 127, 0, 0, 127, 0, 59, 0, 56, 208, 204, 76, 190, 0, 0, 0, 0, 60, 39, 32, 189, 0, 127, 0, 0, 127, 0, 0, 127, 67, 58, 0, 56, 207, 204, 76, 190, 0, 0, 0, 0, 44, 224, 22, 62, 32, 0, 122, 0, 127, 0, 0, 129, 0, 57, 0, 58, 207, 204, 76, 190, 104, 118, 174, 189, 44, 224, 22, 62, 32, 0, 122, 0, 127, 0, 0, 129, 198, 56, 0, 58, 144, 178, 215, 188, 104, 118, 174, 189, 198, 114, 206, 61, 32, 0, 122, 0, 127, 0, 0, 129, 198, 56, 0, 58, 144, 178, 215, 188, 0, 0, 0, 0, 198, 114, 206, 61, 32, 0, 122, 0, 127, 0, 0, 129, 0, 57, 0, 58, 207, 204, 76, 190, 104, 118, 174, 189, 44, 224, 22, 62, 32, 0, 122, 0, 127, 0, 0, 129, 198, 56, 0, 58, 207, 204, 76, 190, 226, 177, 211, 189, 44, 224, 22, 62, 32, 0, 122, 0, 127, 0, 0, 129, 162, 56, 0, 58, 144, 178, 215, 188, 226, 177, 211, 189, 198, 114, 206, 61, 32, 0, 122, 0, 127, 0, 0, 129, 162, 56, 0, 58, 144, 178, 215, 188, 104, 118, 174, 189, 198, 114, 206, 61, 32, 0, 122, 0, 127, 0, 0, 129, 198, 56, 0, 58, 208, 204, 76, 190, 0, 0, 0, 0, 60, 39, 32, 189, 32, 0, 122, 0, 127, 0, 0, 129, 67, 58, 0, 56, 208, 204, 76, 190, 104, 118, 174, 189, 60, 39, 32, 189, 32, 0, 122, 0, 127, 0, 0, 129, 32, 58, 0, 56, 161, 214, 244, 189, 104, 118, 174, 189, 223, 114, 120, 189, 32, 0, 122, 0, 127, 0, 0, 129, 32, 58, 0, 56, 161, 214, 244, 189, 0, 0, 0, 0, 223, 114, 120, 189, 32, 0, 122, 0, 127, 0, 0, 129, 67, 58, 0, 56, 208, 204, 76, 190, 104, 118, 174, 189, 60, 39, 32, 189, 0, 127, 0, 0, 127, 0, 0, 127, 255, 57, 0, 56, 207, 204, 76, 190, 104, 118, 174, 189, 51, 39, 32, 61, 0, 127, 0, 0, 127, 0, 0, 127, 32, 58, 0, 56, 128, 214, 49, 190, 226, 177, 211, 189, 164, 25, 30, 190, 227, 202, 146, 0, 127, 0, 0, 127, 162, 56, 0, 58, 157, 153, 25, 190, 205, 204, 76, 190, 235, 60, 232, 189, 227, 202, 146, 0, 127, 0, 0, 127, 75, 56, 0, 58, 209, 204, 76, 190, 205, 204, 76, 190, 206, 204, 204, 189, 227, 202, 146, 0, 127, 0, 0, 127, 75, 56, 0, 58, 207, 204, 76, 190, 226, 177, 211, 189, 45, 224, 22, 190, 227, 202, 146, 0, 127, 0, 0, 127, 162, 56, 0, 58, 207, 204, 76, 190, 0, 0, 0, 0, 45, 224, 22, 190, 0, 0, 130, 0, 127, 0, 0, 127, 0, 57, 0, 58, 207, 204, 76, 190, 104, 118, 174, 189, 45, 224, 22, 190, 0, 0, 130, 0, 127, 0, 0, 127, 198, 56, 0, 58, 0, 0, 0, 191, 104, 118, 174, 189, 42, 224, 22, 190, 0, 0, 130, 0, 127, 0, 0, 127, 198, 56, 0, 58, 0, 0, 0, 191, 0, 0, 0, 0, 42, 224, 22, 190, 0, 0, 130, 0, 127, 0, 0, 127, 0, 57, 0, 58, 207, 204, 76, 190, 104, 118, 174, 189, 45, 224, 22, 190, 0, 0, 129, 0, 127, 0, 0, 127, 198, 56, 0, 58, 207, 204, 76, 190, 226, 177, 211, 189, 45, 224, 22, 190, 0, 0, 129, 0, 127, 0, 0, 127, 162, 56, 0, 58, 0, 0, 0, 191, 226, 177, 211, 189, 42, 224, 22, 190, 0, 0, 129, 0, 127, 0, 0, 127, 162, 56, 0, 58, 0, 0, 0, 191, 104, 118, 174, 189, 42, 224, 22, 190, 0, 0, 129, 0, 127, 0, 0, 127, 198, 56, 0, 58, 207, 204, 76, 190, 0, 0, 0, 0, 51, 39, 32, 61, 0, 0, 130, 0, 127, 0, 0, 127, 67, 58, 0, 56, 207, 204, 76, 190, 104, 118, 174, 189, 51, 39, 32, 61, 0, 0, 130, 0, 127, 0, 0, 127, 32, 58, 0, 56, 255, 255, 255, 190, 104, 118, 174, 189, 63, 39, 32, 61, 0, 0, 130, 0, 127, 0, 0, 127, 32, 58, 0, 56, 255, 255, 255, 190, 0, 0, 0, 0, 63, 39, 32, 61, 0, 0, 130, 0, 127, 0, 0, 127, 67, 58, 0, 56, 254, 255, 255, 190, 226, 177, 211, 189, 47, 224, 22, 62, 0, 201, 114, 0, 127, 0, 0, 129, 162, 56, 0, 58, 254, 255, 255, 190, 205, 204, 76, 190, 208, 204, 204, 61, 0, 201, 114, 0, 127, 0, 0, 129, 75, 56, 0, 58, 207, 204, 76, 190, 205, 204, 76, 190, 202, 204, 204, 61, 0, 201, 114, 0, 127, 0, 0, 129, 75, 56, 0, 58, 207, 204, 76, 190, 226, 177, 211, 189, 44, 224, 22, 62, 0, 201, 114, 0, 127, 0, 0, 129, 162, 56, 0, 58, 0, 0, 0, 191, 0, 0, 0, 0, 42, 224, 22, 190, 0, 127, 0, 0, 127, 0, 0, 127, 0, 59, 0, 56, 255, 255, 255, 190, 0, 0, 0, 0, 48, 39, 32, 189, 0, 127, 0, 0, 127, 0, 0, 127, 67, 58, 0, 56, 254, 255, 255, 190, 0, 0, 0, 0, 47, 224, 22, 62, 0, 0, 127, 0, 127, 0, 0, 129, 0, 57, 0, 58, 254, 255, 255, 190, 104, 118, 174, 189, 47, 224, 22, 62, 0, 0, 127, 0, 127, 0, 0, 129, 198, 56, 0, 58, 207, 204, 76, 190, 104, 118, 174, 189, 44, 224, 22, 62, 0, 0, 127, 0, 127, 0, 0, 129, 198, 56, 0, 58, 207, 204, 76, 190, 0, 0, 0, 0, 44, 224, 22, 62, 0, 0, 127, 0, 127, 0, 0, 129, 0, 57, 0, 58, 254, 255, 255, 190, 104, 118, 174, 189, 47, 224, 22, 62, 0, 0, 126, 0, 127, 0, 0, 129, 198, 56, 0, 58, 254, 255, 255, 190, 226, 177, 211, 189, 47, 224, 22, 62, 0, 0, 126, 0, 127, 0, 0, 129, 162, 56, 0, 58, 207, 204, 76, 190, 226, 177, 211, 189, 44, 224, 22, 62, 0, 0, 126, 0, 127, 0, 0, 129, 162, 56, 0, 58, 207, 204, 76, 190, 104, 118, 174, 189, 44, 224, 22, 62, 0, 0, 126, 0, 127, 0, 0, 129, 198, 56, 0, 58, 255, 255, 255, 190, 0, 0, 0, 0, 48, 39, 32, 189, 0, 0, 127, 0, 127, 0, 0, 129, 67, 58, 0, 56, 255, 255, 255, 190, 104, 118, 174, 189, 48, 39, 32, 189, 0, 0, 127, 0, 127, 0, 0, 129, 32, 58, 0, 56, 208, 204, 76, 190, 104, 118, 174, 189, 60, 39, 32, 189, 0, 0, 127, 0, 127, 0, 0, 129, 32, 58, 0, 56, 208, 204, 76, 190, 0, 0, 0, 0, 60, 39, 32, 189, 0, 0, 127, 0, 127, 0, 0, 129, 67, 58, 0, 56, 207, 204, 76, 190, 104, 118, 174, 189, 51, 39, 32, 61, 0, 126, 0, 0, 127, 0, 0, 127, 32, 58, 0, 56, 208, 204, 76, 190, 104, 118, 174, 189, 60, 39, 32, 189, 0, 126, 0, 0, 127, 0, 0, 127, 255, 57, 0, 56, 255, 255, 255, 190, 104, 118, 174, 189, 48, 39, 32, 189, 0, 126, 0, 0, 127, 0, 0, 127, 255, 57, 0, 56, 255, 255, 255, 190, 104, 118, 174, 189, 63, 39, 32, 61, 0, 126, 0, 0, 127, 0, 0, 127, 32, 58, 0, 56, 207, 204, 76, 190, 226, 177, 211, 189, 45, 224, 22, 190, 0, 201, 142, 0, 127, 0, 0, 127, 162, 56, 0, 58, 209, 204, 76, 190, 205, 204, 76, 190, 206, 204, 204, 189, 0, 201, 142, 0, 127, 0, 0, 127, 75, 56, 0, 58, 0, 0, 0, 191, 205, 204, 76, 190, 200, 204, 204, 189, 0, 201, 142, 0, 127, 0, 0, 127, 75, 56, 0, 58, 0, 0, 0, 191, 226, 177, 211, 189, 42, 224, 22, 190, 0, 201, 142, 0, 127, 0, 0, 127, 162, 56, 0, 58, 207, 204, 76, 190, 0, 0, 0, 0, 44, 224, 22, 62, 0, 127, 0, 0, 127, 0, 0, 127, 0, 59, 0, 56, 207, 204, 76, 190, 0, 0, 0, 0, 51, 39, 32, 61, 0, 127, 0, 0, 127, 0, 0, 127, 67, 58, 0, 56, 255, 255, 255, 190, 0, 0, 0, 0, 63, 39, 32, 61, 0, 127, 0, 0, 127, 0, 0, 127, 67, 58, 0, 56, 254, 255, 255, 190, 0, 0, 0, 0, 47, 224, 22, 62, 0, 127, 0, 0, 127, 0, 0, 127, 0, 59, 0, 56, 22, 190, 223, 61, 0, 0, 0, 0, 13, 57, 187, 189, 0, 127, 0, 0, 127, 0, 0, 129, 234, 58, 0, 56, 43, 224, 22, 62, 0, 0, 0, 0, 205, 204, 76, 190, 0, 127, 0, 0, 127, 0, 0, 129, 0, 59, 0, 56, 47, 39, 32, 61, 0, 0, 0, 0, 204, 204, 76, 190, 0, 127, 0, 0, 127, 0, 0, 129, 67, 58, 0, 56, 26, 40, 142, 61, 0, 0, 0, 176, 33, 29, 3, 190, 0, 127, 0, 0, 127, 0, 0, 129, 88, 58, 0, 56, 195, 114, 206, 61, 0, 0, 0, 0, 132, 178, 215, 188, 0, 127, 0, 0, 127, 0, 0, 127, 0, 59, 0, 56, 43, 224, 22, 62, 0, 0, 0, 0, 205, 204, 76, 190, 0, 127, 0, 0, 127, 0, 0, 127, 0, 59, 0, 56, 22, 190, 223, 61, 0, 0, 0, 0, 13, 57, 187, 189, 0, 127, 0, 0, 127, 0, 0, 127, 234, 58, 0, 56, 50, 107, 126, 61, 0, 0, 0, 0, 249, 111, 31, 189, 0, 127, 0, 0, 127, 0, 0, 127, 234, 58, 0, 56, 26, 40, 142, 61, 0, 0, 0, 176, 33, 29, 3, 190, 0, 127, 0, 0, 127, 0, 0, 129, 88, 58, 0, 56, 47, 39, 32, 61, 0, 0, 0, 0, 204, 204, 76, 190, 0, 127, 0, 0, 127, 0, 0, 129, 67, 58, 0, 56, 134, 142, 231, 59, 0, 0, 0, 0, 254, 194, 164, 189, 0, 127, 0, 0, 127, 0, 0, 129, 67, 58, 0, 56, 237, 169, 143, 60, 0, 0, 0, 0, 150, 97, 152, 189, 0, 127, 0, 0, 127, 0, 0, 129, 88, 58, 0, 56, 46, 221, 22, 189, 0, 0, 0, 0, 90, 71, 114, 61, 0, 127, 0, 0, 127, 0, 0, 127, 234, 58, 0, 56, 144, 178, 215, 188, 0, 0, 0, 0, 198, 114, 206, 61, 0, 127, 0, 0, 127, 0, 0, 127, 0, 59, 0, 56, 237, 169, 143, 60, 0, 0, 0, 0, 150, 97, 152, 189, 0, 127, 0, 0, 127, 0, 0, 127, 88, 58, 0, 56, 134, 142, 231, 59, 0, 0, 0, 0, 254, 194, 164, 189, 0, 127, 0, 0, 127, 0, 0, 127, 67, 58, 0, 56, 4, 195, 164, 189, 0, 0, 0, 0, 202, 142, 231, 59, 0, 127, 0, 0, 127, 0, 0, 127, 67, 58, 0, 56, 156, 97, 152, 189, 0, 0, 0, 0, 254, 169, 143, 60, 0, 127, 0, 0, 127, 0, 0, 127, 88, 58, 0, 56, 221, 64, 7, 190, 0, 0, 128, 47, 166, 80, 158, 61, 0, 127, 0, 0, 136, 0, 39, 129, 88, 58, 255, 55, 207, 204, 76, 190, 0, 0, 0, 0, 51, 39, 32, 61, 0, 127, 0, 0, 0, 0, 127, 127, 67, 58, 0, 56, 207, 204, 76, 190, 0, 0, 0, 0, 44, 224, 22, 62, 0, 127, 0, 0, 136, 0, 39, 129, 0, 59, 0, 56, 24, 34, 195, 189, 0, 0, 128, 47, 148, 236, 230, 61, 0, 127, 0, 0, 136, 0, 39, 129, 234, 58, 0, 56, 156, 97, 152, 189, 0, 0, 0, 0, 254, 169, 143, 60, 0, 127, 0, 0, 125, 0, 235, 129, 88, 58, 0, 56, 4, 195, 164, 189, 0, 0, 0, 0, 202, 142, 231, 59, 0, 127, 0, 0, 127, 0, 0, 127, 67, 58, 0, 56, 207, 204, 76, 190, 0, 0, 0, 0, 51, 39, 32, 61, 0, 127, 0, 0, 125, 0, 235, 129, 67, 58, 0, 56, 221, 64, 7, 190, 0, 0, 128, 47, 166, 80, 158, 61, 0, 127, 0, 0, 125, 0, 235, 129, 88, 58, 255, 55, 144, 178, 215, 188, 0, 0, 0, 0, 198, 114, 206, 61, 0, 126, 0, 0, 127, 0, 0, 129, 0, 59, 0, 56, 46, 221, 22, 189, 0, 0, 0, 0, 90, 71, 114, 61, 0, 126, 0, 0, 127, 0, 0, 129, 234, 58, 0, 56, 24, 34, 195, 189, 0, 0, 128, 47, 148, 236, 230, 61, 0, 126, 0, 0, 127, 0, 0, 129, 234, 58, 0, 56, 207, 204, 76, 190, 0, 0, 0, 0, 44, 224, 22, 62, 0, 126, 0, 0, 127, 0, 0, 129, 0, 59, 0, 56, 22, 190, 223, 61, 0, 0, 0, 0, 13, 57, 187, 189, 162, 0, 172, 0, 127, 0, 0, 127, 234, 58, 0, 56, 22, 190, 223, 61, 240, 192, 128, 189, 13, 57, 187, 189, 162, 0, 172, 0, 127, 0, 0, 127, 234, 58, 0, 56, 50, 107, 126, 61, 240, 192, 128, 189, 249, 111, 31, 189, 162, 0, 172, 0, 127, 0, 0, 127, 234, 58, 0, 56, 50, 107, 126, 61, 0, 0, 0, 0, 249, 111, 31, 189, 162, 0, 172, 0, 127, 0, 0, 127, 234, 58, 0, 56, 221, 64, 7, 190, 0, 0, 128, 47, 166, 80, 158, 61, 91, 0, 88, 0, 127, 0, 0, 129, 88, 58, 255, 55, 221, 64, 7, 190, 240, 192, 128, 189, 166, 80, 158, 61, 91, 0, 88, 0, 127, 0, 0, 129, 88, 58, 255, 55, 156, 97, 152, 189, 240, 192, 128, 189, 254, 169, 143, 60, 91, 0, 88, 0, 127, 0, 0, 129, 88, 58, 0, 56, 156, 97, 152, 189, 0, 0, 0, 0, 254, 169, 143, 60, 91, 0, 88, 0, 127, 0, 0, 129, 88, 58, 0, 56, 156, 97, 152, 189, 0, 0, 0, 0, 254, 169, 143, 60, 89, 0, 89, 0, 127, 0, 0, 129, 88, 58, 0, 56, 156, 97, 152, 189, 240, 192, 128, 189, 254, 169, 143, 60, 89, 0, 89, 0, 127, 0, 0, 129, 88, 58, 0, 56, 237, 169, 143, 60, 240, 192, 128, 189, 150, 97, 152, 189, 89, 0, 89, 0, 127, 0, 0, 129, 88, 58, 0, 56, 237, 169, 143, 60, 0, 0, 0, 0, 150, 97, 152, 189, 89, 0, 89, 0, 127, 0, 0, 129, 88, 58, 0, 56, 237, 169, 143, 60, 0, 0, 0, 0, 150, 97, 152, 189, 91, 0, 88, 0, 127, 0, 0, 129, 88, 58, 0, 56, 237, 169, 143, 60, 240, 192, 128, 189, 150, 97, 152, 189, 91, 0, 88, 0, 127, 0, 0, 129, 88, 58, 0, 56, 26, 40, 142, 61, 240, 192, 128, 189, 33, 29, 3, 190, 91, 0, 88, 0, 127, 0, 0, 129, 88, 58, 0, 56, 26, 40, 142, 61, 0, 0, 0, 176, 33, 29, 3, 190, 91, 0, 88, 0, 127, 0, 0, 129, 88, 58, 0, 56, 26, 40, 142, 61, 0, 0, 0, 176, 33, 29, 3, 190, 171, 0, 93, 0, 127, 0, 0, 129, 88, 58, 0, 56, 26, 40, 142, 61, 240, 192, 128, 189, 33, 29, 3, 190, 171, 0, 93, 0, 127, 0, 0, 129, 88, 58, 0, 56, 22, 190, 223, 61, 240, 192, 128, 189, 13, 57, 187, 189, 171, 0, 93, 0, 127, 0, 0, 129, 234, 58, 0, 56, 22, 190, 223, 61, 0, 0, 0, 0, 13, 57, 187, 189, 171, 0, 93, 0, 127, 0, 0, 129, 234, 58, 0, 56, 46, 221, 22, 189, 0, 0, 0, 0, 90, 71, 114, 61, 171, 0, 163, 0, 127, 0, 0, 127, 234, 58, 0, 56, 46, 221, 22, 189, 240, 192, 128, 189, 90, 71, 114, 61, 171, 0, 163, 0, 127, 0, 0, 127, 234, 58, 0, 56, 24, 34, 195, 189, 240, 192, 128, 189, 148, 236, 230, 61, 171, 0, 163, 0, 127, 0, 0, 127, 234, 58, 0, 56, 24, 34, 195, 189, 0, 0, 128, 47, 148, 236, 230, 61, 171, 0, 163, 0, 127, 0, 0, 127, 234, 58, 0, 56, 24, 34, 195, 189, 0, 0, 128, 47, 148, 236, 230, 61, 88, 0, 165, 0, 127, 0, 0, 127, 234, 58, 0, 56, 24, 34, 195, 189, 240, 192, 128, 189, 148, 236, 230, 61, 88, 0, 165, 0, 127, 0, 0, 127, 234, 58, 0, 56, 221, 64, 7, 190, 240, 192, 128, 189, 166, 80, 158, 61, 88, 0, 165, 0, 127, 0, 0, 127, 88, 58, 255, 55, 221, 64, 7, 190, 0, 0, 128, 47, 166, 80, 158, 61, 88, 0, 165, 0, 127, 0, 0, 127, 88, 58, 255, 55, 50, 107, 126, 61, 0, 0, 0, 0, 249, 111, 31, 189, 167, 0, 166, 0, 127, 0, 0, 127, 234, 58, 0, 56, 50, 107, 126, 61, 240, 192, 128, 189, 249, 111, 31, 189, 167, 0, 166, 0, 127, 0, 0, 127, 234, 58, 0, 56, 46, 221, 22, 189, 240, 192, 128, 189, 90, 71, 114, 61, 167, 0, 166, 0, 127, 0, 0, 127, 234, 58, 0, 56, 46, 221, 22, 189, 0, 0, 0, 0, 90, 71, 114, 61, 167, 0, 166, 0, 127, 0, 0, 127, 234, 58, 0, 56, 237, 169, 143, 60, 240, 192, 128, 189, 150, 97, 152, 189, 0, 127, 0, 0, 127, 0, 0, 127, 0, 0, 0, 60, 50, 107, 126, 61, 240, 192, 128, 189, 249, 111, 31, 189, 0, 127, 0, 0, 127, 0, 0, 127, 0, 0, 0, 60, 26, 40, 142, 61, 240, 192, 128, 189, 33, 29, 3, 190, 0, 127, 0, 0, 127, 0, 0, 127, 0, 0, 0, 60, 46, 221, 22, 189, 240, 192, 128, 189, 90, 71, 114, 61, 0, 127, 0, 0, 127, 0, 0, 127, 0, 0, 0, 60, 156, 97, 152, 189, 240, 192, 128, 189, 254, 169, 143, 60, 0, 126, 0, 0, 127, 0, 0, 127, 0, 0, 0, 60, 46, 221, 22, 189, 240, 192, 128, 189, 90, 71, 114, 61, 0, 126, 0, 0, 127, 0, 0, 127, 0, 0, 0, 60, 237, 169, 143, 60, 240, 192, 128, 189, 150, 97, 152, 189, 0, 126, 0, 0, 127, 0, 0, 127, 0, 0, 0, 60, 156, 97, 152, 189, 240, 192, 128, 189, 254, 169, 143, 60, 0, 127, 0, 0, 127, 0, 0, 127, 0, 0, 0, 60, 221, 64, 7, 190, 240, 192, 128, 189, 166, 80, 158, 61, 0, 127, 0, 0, 127, 0, 0, 127, 0, 0, 0, 60, 24, 34, 195, 189, 240, 192, 128, 189, 148, 236, 230, 61, 0, 127, 0, 0, 127, 0, 0, 127, 0, 0, 0, 60, 22, 190, 223, 61, 240, 192, 128, 189, 13, 57, 187, 189, 0, 127, 0, 0, 127, 0, 0, 127, 0, 0, 0, 60 ),
"array_index_data": PoolByteArray( 0, 0, 2, 0, 1, 0, 0, 0, 3, 0, 2, 0, 4, 0, 6, 0, 5, 0, 4, 0, 7, 0, 6, 0, 8, 0, 10, 0, 9, 0, 8, 0, 11, 0, 10, 0, 12, 0, 14, 0, 13, 0, 12, 0, 15, 0, 14, 0, 13, 0, 17, 0, 16, 0, 13, 0, 14, 0, 17, 0, 18, 0, 20, 0, 19, 0, 18, 0, 21, 0, 20, 0, 22, 0, 24, 0, 23, 0, 22, 0, 25, 0, 24, 0, 26, 0, 28, 0, 27, 0, 26, 0, 29, 0, 28, 0, 30, 0, 32, 0, 31, 0, 30, 0, 33, 0, 32, 0, 34, 0, 36, 0, 35, 0, 34, 0, 37, 0, 36, 0, 38, 0, 40, 0, 39, 0, 38, 0, 41, 0, 40, 0, 42, 0, 44, 0, 43, 0, 42, 0, 45, 0, 44, 0, 46, 0, 48, 0, 47, 0, 46, 0, 49, 0, 48, 0, 50, 0, 52, 0, 51, 0, 50, 0, 53, 0, 52, 0, 54, 0, 56, 0, 55, 0, 54, 0, 57, 0, 56, 0, 58, 0, 60, 0, 59, 0, 58, 0, 61, 0, 60, 0, 62, 0, 64, 0, 63, 0, 62, 0, 65, 0, 64, 0, 66, 0, 68, 0, 67, 0, 66, 0, 69, 0, 68, 0, 70, 0, 72, 0, 71, 0, 70, 0, 73, 0, 72, 0, 74, 0, 76, 0, 75, 0, 74, 0, 77, 0, 76, 0, 78, 0, 80, 0, 79, 0, 78, 0, 81, 0, 80, 0, 82, 0, 84, 0, 83, 0, 82, 0, 85, 0, 84, 0, 86, 0, 88, 0, 87, 0, 89, 0, 88, 0, 86, 0, 90, 0, 92, 0, 91, 0, 90, 0, 93, 0, 92, 0, 94, 0, 96, 0, 95, 0, 94, 0, 97, 0, 96, 0, 95, 0, 99, 0, 98, 0, 95, 0, 96, 0, 99, 0, 100, 0, 102, 0, 101, 0, 100, 0, 103, 0, 102, 0, 104, 0, 106, 0, 105, 0, 104, 0, 107, 0, 106, 0, 108, 0, 110, 0, 109, 0, 108, 0, 111, 0, 110, 0, 112, 0, 114, 0, 113, 0, 112, 0, 115, 0, 114, 0, 113, 0, 117, 0, 116, 0, 113, 0, 114, 0, 117, 0, 118, 0, 120, 0, 119, 0, 118, 0, 121, 0, 120, 0, 122, 0, 124, 0, 123, 0, 122, 0, 125, 0, 124, 0, 126, 0, 128, 0, 127, 0, 126, 0, 129, 0, 128, 0, 130, 0, 132, 0, 131, 0, 130, 0, 133, 0, 132, 0, 111, 0, 134, 0, 110, 0, 111, 0, 135, 0, 134, 0, 136, 0, 138, 0, 137, 0, 136, 0, 139, 0, 138, 0, 140, 0, 142, 0, 141, 0, 140, 0, 143, 0, 142, 0, 144, 0, 146, 0, 145, 0, 144, 0, 147, 0, 146, 0, 89, 0, 148, 0, 88, 0, 89, 0, 149, 0, 148, 0, 150, 0, 152, 0, 151, 0, 150, 0, 153, 0, 152, 0, 154, 0, 156, 0, 155, 0, 154, 0, 157, 0, 156, 0, 158, 0, 160, 0, 159, 0, 158, 0, 161, 0, 160, 0, 162, 0, 164, 0, 163, 0, 162, 0, 165, 0, 164, 0, 166, 0, 168, 0, 167, 0, 166, 0, 169, 0, 168, 0, 135, 0, 170, 0, 134, 0, 135, 0, 171, 0, 170, 0, 172, 0, 174, 0, 173, 0, 172, 0, 175, 0, 174, 0, 176, 0, 178, 0, 177, 0, 176, 0, 179, 0, 178, 0, 180, 0, 182, 0, 181, 0, 180, 0, 183, 0, 182, 0, 184, 0, 186, 0, 185, 0, 184, 0, 187, 0, 186, 0, 188, 0, 190, 0, 189, 0, 188, 0, 191, 0, 190, 0, 192, 0, 194, 0, 193, 0, 192, 0, 195, 0, 194, 0, 196, 0, 198, 0, 197, 0, 196, 0, 199, 0, 198, 0, 200, 0, 202, 0, 201, 0, 200, 0, 203, 0, 202, 0, 204, 0, 206, 0, 205, 0, 207, 0, 206, 0, 204, 0, 200, 0, 208, 0, 203, 0, 209, 0, 208, 0, 200, 0, 210, 0, 212, 0, 211, 0, 213, 0, 212, 0, 210, 0, 214, 0, 216, 0, 215, 0, 217, 0, 216, 0, 214, 0, 218, 0, 220, 0, 219, 0, 221, 0, 220, 0, 218, 0, 222, 0, 224, 0, 223, 0, 225, 0, 224, 0, 222, 0, 226, 0, 228, 0, 227, 0, 226, 0, 229, 0, 228, 0, 230, 0, 232, 0, 231, 0, 230, 0, 233, 0, 232, 0, 234, 0, 236, 0, 235, 0, 234, 0, 237, 0, 236, 0, 238, 0, 240, 0, 239, 0, 238, 0, 241, 0, 240, 0, 242, 0, 244, 0, 243, 0, 242, 0, 245, 0, 244, 0, 246, 0, 248, 0, 247, 0, 246, 0, 249, 0, 248, 0, 250, 0, 252, 0, 251, 0, 250, 0, 253, 0, 252, 0, 254, 0, 0, 1, 255, 0, 254, 0, 1, 1, 0, 1, 2, 1, 4, 1, 3, 1, 5, 1, 2, 1, 3, 1, 6, 1, 8, 1, 7, 1, 5, 1, 10, 1, 9, 1, 11, 1, 10, 1, 5, 1, 3, 1, 4, 1, 12, 1 ),
"blend_shape_data": [  ],
"format": 97559,
"index_count": 426,
"material": ExtResource( 1 ),
"primitive": 4,
"skeleton_aabb": [  ],
"vertex_count": 269
}

[sub_resource type="ArrayMesh" id=2]
resource_name = "Gear001"
surfaces/0 = {
"aabb": AABB( -0.142367, -0.143198, -0.025, 0.280774, 0.286395, 0.05 ),
"array_data": PoolByteArray( 207, 154, 58, 61, 142, 190, 193, 189, 209, 204, 204, 188, 0, 0, 129, 0, 127, 0, 0, 127, 170, 53, 69, 56, 189, 58, 180, 175, 62, 10, 215, 189, 209, 204, 204, 188, 0, 0, 129, 0, 127, 0, 0, 127, 0, 52, 20, 56, 195, 154, 58, 189, 145, 190, 193, 189, 209, 204, 204, 188, 0, 0, 129, 0, 127, 0, 0, 127, 170, 48, 69, 56, 1, 32, 168, 189, 71, 19, 134, 189, 209, 204, 204, 188, 0, 0, 129, 0, 127, 0, 0, 127, 251, 43, 205, 56, 3, 32, 168, 61, 67, 19, 134, 189, 207, 204, 204, 188, 0, 0, 129, 0, 127, 0, 0, 127, 0, 55, 205, 56, 4, 166, 209, 189, 88, 103, 191, 188, 207, 204, 204, 188, 0, 0, 129, 0, 127, 0, 0, 127, 25, 36, 146, 57, 4, 166, 209, 61, 78, 103, 191, 188, 205, 204, 204, 188, 0, 0, 129, 0, 127, 0, 0, 127, 190, 55, 146, 57, 4, 166, 209, 189, 89, 103, 191, 60, 205, 204, 204, 188, 0, 0, 129, 0, 127, 0, 0, 127, 25, 36, 109, 58, 4, 166, 209, 61, 85, 103, 191, 60, 203, 204, 204, 188, 0, 0, 129, 0, 127, 0, 0, 127, 190, 55, 109, 58, 3, 32, 168, 61, 67, 19, 134, 61, 201, 204, 204, 188, 0, 0, 129, 0, 127, 0, 0, 127, 0, 55, 50, 59, 1, 32, 168, 189, 71, 19, 134, 61, 203, 204, 204, 188, 0, 0, 129, 0, 127, 0, 0, 127, 251, 43, 50, 59, 209, 154, 58, 61, 142, 190, 193, 61, 201, 204, 204, 188, 0, 0, 129, 0, 127, 0, 0, 127, 170, 53, 186, 59, 202, 154, 58, 189, 143, 190, 193, 61, 201, 204, 204, 188, 0, 0, 129, 0, 127, 0, 0, 127, 170, 48, 186, 59, 161, 95, 133, 50, 62, 10, 215, 61, 201, 204, 204, 188, 0, 0, 129, 0, 127, 0, 0, 127, 0, 52, 235, 59, 241, 49, 66, 189, 192, 183, 190, 189, 201, 204, 204, 60, 0, 0, 127, 0, 126, 1, 0, 129, 203, 57, 147, 57, 160, 91, 23, 59, 223, 245, 213, 189, 201, 204, 204, 60, 0, 0, 127, 0, 126, 254, 0, 129, 255, 57, 135, 57, 156, 35, 49, 61, 24, 211, 194, 189, 201, 204, 204, 60, 0, 0, 127, 0, 126, 254, 0, 129, 52, 58, 147, 57, 15, 60, 170, 61, 216, 177, 129, 189, 203, 204, 204, 60, 0, 0, 127, 0, 126, 255, 0, 129, 94, 58, 180, 57, 194, 83, 164, 189, 158, 26, 137, 189, 201, 204, 204, 60, 0, 0, 127, 0, 126, 2, 0, 129, 161, 57, 180, 57, 4, 166, 209, 189, 179, 241, 171, 188, 203, 204, 204, 60, 0, 0, 127, 0, 126, 1, 0, 129, 138, 57, 229, 57, 29, 138, 207, 61, 203, 235, 208, 188, 205, 204, 204, 60, 0, 0, 127, 0, 126, 254, 0, 129, 117, 58, 229, 57, 14, 138, 207, 61, 75, 236, 208, 60, 207, 204, 204, 60, 0, 0, 127, 0, 126, 255, 0, 129, 117, 58, 26, 58, 4, 166, 209, 189, 247, 242, 171, 60, 205, 204, 204, 60, 0, 0, 127, 0, 126, 2, 0, 129, 138, 57, 26, 58, 208, 83, 164, 189, 147, 26, 137, 61, 207, 204, 204, 60, 0, 0, 127, 0, 126, 1, 0, 129, 161, 57, 75, 58, 227, 59, 170, 61, 52, 178, 129, 61, 209, 204, 204, 60, 0, 0, 127, 0, 126, 254, 0, 129, 94, 58, 75, 58, 13, 36, 49, 61, 11, 211, 194, 61, 209, 204, 204, 60, 0, 0, 127, 0, 126, 255, 0, 129, 52, 58, 108, 58, 101, 49, 66, 189, 249, 183, 190, 61, 209, 204, 204, 60, 0, 0, 127, 0, 126, 2, 0, 129, 203, 57, 108, 58, 88, 82, 23, 59, 240, 245, 213, 61, 209, 204, 204, 60, 0, 0, 127, 0, 126, 2, 0, 129, 0, 58, 120, 58, 189, 58, 180, 175, 62, 10, 215, 189, 209, 204, 204, 188, 133, 228, 0, 0, 127, 0, 0, 129, 0, 60, 0, 0, 208, 212, 17, 60, 151, 162, 18, 190, 15, 24, 172, 188, 133, 228, 0, 0, 127, 0, 0, 129, 0, 60, 0, 0, 208, 212, 17, 60, 249, 153, 18, 190, 140, 89, 154, 60, 133, 228, 0, 0, 127, 0, 0, 129, 0, 60, 150, 55, 193, 174, 164, 47, 62, 10, 215, 189, 55, 34, 187, 60, 133, 228, 0, 0, 127, 0, 0, 129, 0, 60, 167, 55, 3, 16, 95, 61, 254, 159, 9, 190, 211, 104, 154, 60, 123, 27, 0, 0, 127, 0, 0, 127, 109, 59, 150, 55, 3, 16, 95, 61, 156, 168, 9, 190, 242, 8, 172, 188, 123, 27, 0, 0, 127, 0, 0, 127, 109, 59, 0, 0, 207, 154, 58, 61, 142, 190, 193, 189, 209, 204, 204, 188, 123, 27, 0, 0, 127, 0, 0, 127, 109, 59, 0, 0, 207, 154, 58, 61, 142, 190, 193, 189, 75, 34, 187, 60, 123, 27, 0, 0, 127, 0, 0, 127, 109, 59, 167, 55, 90, 186, 13, 62, 130, 66, 52, 189, 39, 127, 154, 60, 63, 110, 0, 0, 109, 194, 246, 127, 73, 58, 150, 55, 90, 186, 13, 62, 246, 100, 52, 189, 230, 241, 171, 188, 63, 110, 0, 0, 127, 0, 0, 127, 73, 58, 0, 0, 4, 166, 209, 61, 78, 103, 191, 188, 205, 204, 204, 188, 63, 110, 0, 0, 109, 194, 246, 127, 73, 58, 0, 0, 4, 166, 209, 61, 80, 103, 191, 188, 245, 33, 187, 60, 63, 110, 0, 0, 109, 194, 246, 127, 73, 58, 167, 55, 178, 238, 241, 61, 2, 209, 162, 61, 225, 241, 171, 188, 210, 118, 0, 0, 127, 0, 0, 127, 36, 57, 0, 0, 3, 32, 168, 61, 67, 19, 134, 61, 201, 204, 204, 188, 210, 118, 0, 0, 127, 0, 0, 127, 36, 57, 0, 0, 3, 32, 168, 61, 67, 19, 134, 61, 48, 34, 187, 60, 210, 118, 0, 0, 127, 0, 0, 127, 36, 57, 167, 55, 178, 238, 241, 61, 60, 226, 162, 61, 159, 127, 154, 60, 210, 118, 0, 0, 127, 0, 0, 127, 36, 57, 150, 55, 202, 154, 58, 189, 143, 190, 193, 61, 183, 34, 187, 60, 96, 82, 0, 0, 127, 0, 0, 127, 219, 54, 167, 55, 202, 154, 58, 189, 143, 190, 193, 61, 201, 204, 204, 188, 96, 82, 0, 0, 127, 0, 0, 127, 219, 54, 0, 0, 235, 96, 144, 189, 214, 18, 253, 61, 75, 251, 171, 188, 96, 82, 0, 0, 127, 0, 0, 127, 219, 54, 0, 0, 235, 96, 144, 189, 17, 36, 253, 61, 43, 119, 154, 60, 96, 82, 0, 0, 127, 0, 0, 127, 219, 54, 150, 55, 88, 82, 23, 59, 240, 245, 213, 61, 209, 204, 204, 60, 2, 12, 126, 0, 127, 0, 0, 129, 7, 56, 0, 56, 13, 36, 49, 61, 11, 211, 194, 61, 209, 204, 204, 60, 2, 12, 126, 0, 127, 0, 0, 129, 138, 56, 0, 56, 215, 147, 83, 61, 114, 228, 7, 62, 234, 210, 173, 60, 2, 12, 126, 0, 127, 0, 0, 129, 138, 56, 0, 56, 148, 138, 47, 60, 192, 245, 15, 62, 38, 242, 173, 60, 2, 12, 126, 0, 127, 0, 0, 129, 7, 56, 0, 56, 34, 119, 212, 189, 138, 225, 201, 61, 220, 188, 173, 60, 249, 10, 126, 0, 127, 0, 0, 129, 198, 53, 0, 56, 208, 83, 164, 189, 147, 26, 137, 61, 207, 204, 204, 60, 249, 10, 126, 0, 127, 0, 0, 129, 197, 53, 0, 56, 101, 49, 66, 189, 249, 183, 190, 61, 209, 204, 204, 60, 249, 10, 126, 0, 127, 0, 0, 129, 204, 54, 0, 56, 107, 109, 145, 189, 150, 244, 246, 61, 107, 12, 174, 60, 249, 10, 126, 0, 127, 0, 0, 129, 203, 54, 0, 56, 196, 200, 17, 190, 129, 128, 161, 188, 112, 50, 172, 188, 245, 130, 0, 0, 125, 245, 11, 129, 219, 50, 0, 0, 4, 166, 209, 189, 88, 103, 191, 188, 207, 204, 204, 188, 245, 130, 0, 0, 127, 0, 0, 129, 219, 50, 0, 0, 4, 166, 209, 189, 90, 103, 191, 188, 126, 33, 187, 60, 245, 130, 0, 0, 125, 245, 11, 129, 219, 50, 167, 55, 196, 200, 17, 190, 153, 59, 161, 188, 96, 62, 154, 60, 245, 130, 0, 0, 125, 245, 11, 129, 219, 50, 150, 55, 3, 32, 168, 61, 67, 19, 134, 189, 207, 204, 204, 188, 210, 138, 0, 0, 127, 0, 0, 129, 219, 58, 0, 0, 179, 238, 241, 61, 43, 227, 162, 189, 19, 47, 172, 188, 210, 138, 0, 0, 127, 0, 0, 129, 219, 58, 0, 0, 179, 238, 241, 61, 241, 209, 162, 189, 137, 65, 154, 60, 210, 138, 0, 0, 127, 0, 0, 129, 219, 58, 150, 55, 3, 32, 168, 61, 67, 19, 134, 189, 114, 33, 187, 60, 210, 138, 0, 0, 127, 0, 0, 129, 219, 58, 167, 55, 1, 32, 168, 189, 71, 19, 134, 189, 209, 204, 204, 188, 155, 75, 0, 0, 127, 0, 0, 127, 146, 48, 0, 0, 134, 51, 219, 189, 102, 215, 202, 189, 84, 251, 171, 188, 155, 75, 0, 0, 127, 0, 0, 127, 146, 48, 0, 0, 134, 51, 219, 189, 43, 198, 202, 189, 34, 118, 154, 60, 155, 75, 0, 0, 127, 0, 0, 127, 146, 48, 150, 55, 1, 32, 168, 189, 71, 19, 134, 189, 36, 34, 187, 60, 155, 75, 0, 0, 127, 0, 0, 127, 146, 48, 167, 55, 3, 32, 168, 61, 67, 19, 134, 189, 114, 33, 187, 60, 79, 157, 0, 0, 0, 0, 126, 127, 84, 59, 205, 56, 207, 154, 58, 61, 142, 190, 193, 189, 75, 34, 187, 60, 79, 157, 0, 0, 0, 0, 127, 127, 169, 58, 69, 56, 207, 154, 58, 61, 142, 190, 193, 189, 209, 204, 204, 188, 79, 157, 0, 0, 0, 0, 127, 127, 170, 53, 69, 56, 3, 32, 168, 61, 67, 19, 134, 189, 207, 204, 204, 188, 79, 157, 0, 0, 0, 0, 127, 127, 0, 55, 205, 56, 179, 238, 241, 61, 241, 209, 162, 189, 137, 65, 154, 60, 110, 194, 0, 0, 194, 146, 0, 127, 219, 58, 150, 55, 179, 238, 241, 61, 43, 227, 162, 189, 19, 47, 172, 188, 110, 194, 0, 0, 194, 146, 0, 127, 219, 58, 0, 0, 90, 186, 13, 62, 246, 100, 52, 189, 230, 241, 171, 188, 110, 194, 0, 0, 194, 146, 0, 127, 73, 58, 0, 0, 90, 186, 13, 62, 130, 66, 52, 189, 39, 127, 154, 60, 110, 194, 0, 0, 194, 146, 0, 127, 73, 58, 150, 55, 195, 154, 58, 189, 145, 190, 193, 189, 209, 204, 204, 188, 228, 133, 0, 0, 0, 0, 127, 129, 170, 48, 69, 56, 189, 58, 180, 175, 62, 10, 215, 189, 209, 204, 204, 188, 228, 133, 0, 0, 0, 0, 127, 129, 0, 52, 20, 56, 193, 174, 164, 47, 62, 10, 215, 189, 55, 34, 187, 60, 228, 133, 0, 0, 0, 0, 127, 129, 211, 57, 20, 56, 195, 154, 58, 189, 145, 190, 193, 189, 211, 33, 187, 60, 228, 133, 0, 0, 0, 0, 126, 129, 254, 56, 69, 56, 3, 16, 95, 61, 156, 168, 9, 190, 242, 8, 172, 188, 2, 244, 130, 0, 127, 0, 0, 127, 109, 59, 0, 0, 208, 212, 17, 60, 151, 162, 18, 190, 15, 24, 172, 188, 2, 244, 130, 0, 127, 0, 0, 127, 0, 60, 0, 0, 189, 58, 180, 175, 62, 10, 215, 189, 209, 204, 204, 188, 2, 244, 130, 0, 127, 0, 0, 127, 0, 60, 0, 0, 207, 154, 58, 61, 142, 190, 193, 189, 209, 204, 204, 188, 2, 244, 130, 0, 127, 0, 0, 127, 109, 59, 0, 0, 4, 166, 209, 61, 83, 103, 191, 60, 2, 34, 187, 60, 127, 0, 0, 0, 0, 0, 127, 127, 179, 59, 109, 58, 4, 166, 209, 61, 80, 103, 191, 188, 245, 33, 187, 60, 127, 0, 0, 0, 0, 0, 127, 127, 179, 59, 146, 57, 4, 166, 209, 61, 78, 103, 191, 188, 205, 204, 204, 188, 127, 0, 0, 0, 0, 0, 126, 127, 190, 55, 146, 57, 4, 166, 209, 61, 85, 103, 191, 60, 203, 204, 204, 188, 127, 0, 0, 0, 0, 0, 127, 127, 190, 55, 109, 58, 90, 186, 13, 62, 28, 99, 52, 61, 155, 66, 154, 60, 110, 62, 0, 0, 62, 146, 0, 127, 182, 57, 150, 55, 90, 186, 13, 62, 166, 64, 52, 61, 14, 47, 172, 188, 110, 62, 0, 0, 62, 146, 0, 127, 182, 57, 0, 0, 178, 238, 241, 61, 2, 209, 162, 61, 225, 241, 171, 188, 110, 62, 0, 0, 62, 146, 0, 127, 36, 57, 0, 0, 178, 238, 241, 61, 60, 226, 162, 61, 159, 127, 154, 60, 110, 62, 0, 0, 62, 146, 0, 127, 36, 57, 150, 55, 4, 166, 209, 61, 83, 103, 191, 60, 2, 34, 187, 60, 63, 146, 0, 0, 127, 0, 0, 129, 182, 57, 167, 55, 4, 166, 209, 61, 85, 103, 191, 60, 203, 204, 204, 188, 63, 146, 0, 0, 127, 0, 0, 129, 182, 57, 0, 0, 90, 186, 13, 62, 166, 64, 52, 61, 14, 47, 172, 188, 63, 146, 0, 0, 127, 0, 0, 129, 182, 57, 0, 0, 90, 186, 13, 62, 28, 99, 52, 61, 155, 66, 154, 60, 63, 146, 0, 0, 127, 0, 0, 129, 182, 57, 150, 55, 90, 186, 13, 62, 246, 100, 52, 189, 230, 241, 171, 188, 11, 251, 130, 0, 127, 0, 0, 127, 73, 58, 0, 0, 179, 238, 241, 61, 43, 227, 162, 189, 19, 47, 172, 188, 11, 251, 130, 0, 127, 0, 0, 127, 219, 58, 0, 0, 3, 32, 168, 61, 67, 19, 134, 189, 207, 204, 204, 188, 11, 251, 130, 0, 127, 0, 0, 127, 219, 58, 0, 0, 4, 166, 209, 61, 78, 103, 191, 188, 205, 204, 204, 188, 11, 251, 130, 0, 127, 0, 0, 127, 73, 58, 0, 0, 209, 154, 58, 61, 142, 190, 193, 61, 18, 35, 187, 60, 79, 99, 0, 0, 0, 0, 127, 127, 169, 58, 186, 59, 3, 32, 168, 61, 67, 19, 134, 61, 48, 34, 187, 60, 79, 99, 0, 0, 0, 0, 126, 127, 84, 59, 50, 59, 3, 32, 168, 61, 67, 19, 134, 61, 201, 204, 204, 188, 79, 99, 0, 0, 0, 0, 126, 127, 0, 55, 50, 59, 209, 154, 58, 61, 142, 190, 193, 61, 201, 204, 204, 188, 79, 99, 0, 0, 0, 0, 127, 127, 170, 53, 186, 59, 6, 16, 95, 61, 37, 168, 9, 62, 86, 91, 154, 60, 23, 124, 0, 0, 124, 233, 0, 127, 146, 56, 150, 55, 6, 16, 95, 61, 135, 159, 9, 62, 4, 24, 172, 188, 23, 124, 0, 0, 124, 233, 0, 127, 146, 56, 0, 0, 228, 212, 17, 60, 130, 153, 18, 62, 231, 8, 172, 188, 23, 124, 0, 0, 124, 233, 0, 127, 255, 55, 0, 0, 228, 212, 17, 60, 32, 162, 18, 62, 90, 106, 154, 60, 23, 124, 0, 0, 124, 233, 0, 127, 255, 55, 150, 55, 209, 154, 58, 61, 142, 190, 193, 61, 18, 35, 187, 60, 123, 229, 0, 0, 127, 0, 0, 129, 146, 56, 167, 55, 209, 154, 58, 61, 142, 190, 193, 61, 201, 204, 204, 188, 123, 229, 0, 0, 127, 0, 0, 129, 146, 56, 0, 0, 6, 16, 95, 61, 135, 159, 9, 62, 4, 24, 172, 188, 123, 229, 0, 0, 127, 0, 0, 129, 146, 56, 0, 0, 6, 16, 95, 61, 37, 168, 9, 62, 86, 91, 154, 60, 123, 229, 0, 0, 127, 0, 0, 129, 146, 56, 150, 55, 90, 186, 13, 62, 166, 64, 52, 61, 14, 47, 172, 188, 11, 5, 130, 0, 127, 0, 0, 127, 182, 57, 0, 0, 4, 166, 209, 61, 85, 103, 191, 60, 203, 204, 204, 188, 11, 5, 130, 0, 127, 0, 0, 127, 182, 57, 0, 0, 3, 32, 168, 61, 67, 19, 134, 61, 201, 204, 204, 188, 11, 5, 130, 0, 127, 0, 0, 127, 36, 57, 0, 0, 178, 238, 241, 61, 2, 209, 162, 61, 225, 241, 171, 188, 11, 5, 130, 0, 127, 0, 0, 127, 36, 57, 0, 0, 228, 212, 17, 60, 130, 153, 18, 62, 231, 8, 172, 188, 133, 28, 0, 0, 127, 0, 0, 127, 255, 55, 0, 0, 161, 95, 133, 50, 62, 10, 215, 61, 201, 204, 204, 188, 133, 28, 0, 0, 127, 0, 0, 127, 255, 55, 0, 0, 74, 195, 138, 50, 62, 10, 215, 61, 28, 35, 187, 60, 133, 28, 0, 0, 127, 0, 0, 127, 255, 55, 167, 55, 228, 212, 17, 60, 32, 162, 18, 62, 90, 106, 154, 60, 133, 28, 0, 0, 127, 0, 0, 127, 255, 55, 150, 55, 184, 129, 15, 190, 219, 130, 143, 188, 119, 198, 173, 60, 244, 0, 126, 0, 127, 0, 0, 129, 253, 50, 0, 56, 4, 166, 209, 189, 179, 241, 171, 188, 203, 204, 204, 60, 244, 0, 126, 0, 127, 0, 0, 129, 249, 50, 0, 56, 4, 166, 209, 189, 247, 242, 171, 60, 205, 204, 204, 60, 244, 0, 126, 0, 127, 0, 0, 129, 131, 52, 0, 56, 169, 129, 15, 190, 205, 200, 143, 60, 125, 254, 173, 60, 244, 0, 126, 0, 127, 0, 0, 129, 129, 52, 0, 56, 235, 96, 144, 189, 214, 18, 253, 61, 75, 251, 171, 188, 186, 105, 0, 0, 105, 70, 0, 127, 219, 54, 0, 0, 135, 51, 219, 189, 60, 197, 202, 61, 162, 37, 172, 188, 186, 105, 0, 0, 105, 70, 0, 127, 182, 53, 0, 0, 135, 51, 219, 189, 119, 214, 202, 61, 14, 77, 154, 60, 186, 105, 0, 0, 105, 70, 0, 127, 182, 53, 150, 55, 235, 96, 144, 189, 17, 36, 253, 61, 43, 119, 154, 60, 186, 105, 0, 0, 105, 70, 0, 127, 219, 54, 150, 55, 4, 166, 209, 189, 89, 103, 191, 60, 205, 204, 204, 188, 245, 126, 0, 0, 127, 0, 0, 127, 146, 52, 0, 0, 196, 200, 17, 190, 221, 55, 161, 60, 136, 238, 171, 188, 245, 126, 0, 0, 127, 0, 0, 127, 146, 52, 0, 0, 196, 200, 17, 190, 197, 124, 161, 60, 111, 130, 154, 60, 245, 126, 0, 0, 127, 0, 0, 127, 146, 52, 150, 55, 4, 166, 209, 189, 87, 103, 191, 60, 231, 33, 187, 60, 245, 126, 0, 0, 127, 0, 0, 127, 146, 52, 167, 55, 6, 16, 95, 61, 135, 159, 9, 62, 4, 24, 172, 188, 2, 12, 130, 0, 127, 0, 0, 127, 146, 56, 0, 0, 209, 154, 58, 61, 142, 190, 193, 61, 201, 204, 204, 188, 2, 12, 130, 0, 127, 0, 0, 127, 146, 56, 0, 0, 161, 95, 133, 50, 62, 10, 215, 61, 201, 204, 204, 188, 2, 12, 130, 0, 127, 0, 0, 127, 255, 55, 0, 0, 228, 212, 17, 60, 130, 153, 18, 62, 231, 8, 172, 188, 2, 12, 130, 0, 127, 0, 0, 127, 255, 55, 0, 0, 161, 95, 133, 50, 62, 10, 215, 61, 201, 204, 204, 188, 228, 123, 0, 0, 0, 0, 126, 129, 0, 52, 235, 59, 202, 154, 58, 189, 143, 190, 193, 61, 201, 204, 204, 188, 228, 123, 0, 0, 0, 0, 127, 129, 170, 48, 186, 59, 202, 154, 58, 189, 143, 190, 193, 61, 183, 34, 187, 60, 228, 123, 0, 0, 0, 0, 127, 129, 254, 56, 186, 59, 74, 195, 138, 50, 62, 10, 215, 61, 28, 35, 187, 60, 228, 123, 0, 0, 0, 0, 127, 129, 211, 57, 235, 59, 196, 200, 17, 190, 221, 55, 161, 60, 136, 238, 171, 188, 129, 0, 0, 0, 0, 126, 0, 127, 146, 52, 0, 0, 196, 200, 17, 190, 129, 128, 161, 188, 112, 50, 172, 188, 129, 0, 0, 0, 0, 126, 0, 127, 219, 50, 0, 0, 196, 200, 17, 190, 153, 59, 161, 188, 96, 62, 154, 60, 129, 0, 0, 0, 0, 126, 0, 127, 219, 50, 150, 55, 196, 200, 17, 190, 197, 124, 161, 60, 111, 130, 154, 60, 129, 0, 0, 0, 0, 126, 0, 127, 146, 52, 150, 55, 202, 154, 58, 189, 143, 190, 193, 61, 201, 204, 204, 188, 249, 10, 130, 0, 127, 0, 0, 127, 219, 54, 0, 0, 1, 32, 168, 189, 71, 19, 134, 61, 203, 204, 204, 188, 249, 10, 130, 0, 127, 0, 0, 127, 182, 53, 0, 0, 135, 51, 219, 189, 60, 197, 202, 61, 162, 37, 172, 188, 249, 10, 130, 0, 127, 0, 0, 127, 182, 53, 0, 0, 235, 96, 144, 189, 214, 18, 253, 61, 75, 251, 171, 188, 249, 10, 130, 0, 127, 0, 0, 127, 219, 54, 0, 0, 4, 166, 209, 189, 89, 103, 191, 60, 205, 204, 204, 188, 142, 55, 0, 0, 0, 0, 127, 129, 25, 36, 109, 58, 4, 166, 209, 189, 87, 103, 191, 60, 231, 33, 187, 60, 142, 55, 0, 0, 0, 0, 127, 129, 233, 55, 109, 58, 1, 32, 168, 189, 71, 19, 134, 61, 161, 34, 187, 60, 142, 55, 0, 0, 0, 0, 126, 129, 83, 56, 50, 59, 1, 32, 168, 189, 71, 19, 134, 61, 203, 204, 204, 188, 142, 55, 0, 0, 0, 0, 127, 129, 251, 43, 50, 59, 135, 51, 219, 189, 60, 197, 202, 61, 162, 37, 172, 188, 155, 181, 0, 0, 75, 155, 11, 129, 182, 53, 0, 0, 1, 32, 168, 189, 71, 19, 134, 61, 203, 204, 204, 188, 155, 181, 0, 0, 127, 0, 0, 129, 182, 53, 0, 0, 1, 32, 168, 189, 71, 19, 134, 61, 161, 34, 187, 60, 155, 181, 0, 0, 75, 155, 11, 129, 182, 53, 167, 55, 135, 51, 219, 189, 119, 214, 202, 61, 14, 77, 154, 60, 155, 181, 0, 0, 75, 155, 11, 129, 182, 53, 150, 55, 134, 51, 219, 189, 102, 215, 202, 189, 84, 251, 171, 188, 186, 151, 0, 0, 151, 70, 0, 127, 146, 48, 0, 0, 231, 96, 144, 189, 2, 37, 253, 189, 171, 37, 172, 188, 186, 151, 0, 0, 151, 70, 0, 127, 146, 44, 0, 0, 231, 96, 144, 189, 199, 19, 253, 189, 97, 75, 154, 60, 186, 151, 0, 0, 151, 70, 0, 127, 146, 44, 150, 55, 134, 51, 219, 189, 43, 198, 202, 189, 34, 118, 154, 60, 186, 151, 0, 0, 151, 70, 0, 127, 146, 48, 150, 55, 251, 117, 212, 189, 245, 206, 201, 189, 12, 225, 173, 60, 249, 246, 126, 0, 127, 0, 0, 129, 115, 48, 0, 56, 155, 108, 145, 189, 237, 225, 246, 189, 212, 233, 173, 60, 249, 246, 126, 0, 127, 0, 0, 129, 208, 44, 0, 56, 241, 49, 66, 189, 192, 183, 190, 189, 201, 204, 204, 60, 249, 246, 126, 0, 127, 0, 0, 129, 205, 44, 0, 56, 194, 83, 164, 189, 158, 26, 137, 189, 201, 204, 204, 60, 249, 246, 126, 0, 127, 0, 0, 129, 116, 48, 0, 56, 4, 166, 209, 189, 89, 103, 191, 60, 205, 204, 204, 188, 244, 0, 130, 0, 127, 0, 0, 127, 146, 52, 0, 0, 4, 166, 209, 189, 88, 103, 191, 188, 207, 204, 204, 188, 244, 0, 130, 0, 127, 0, 0, 127, 219, 50, 0, 0, 196, 200, 17, 190, 129, 128, 161, 188, 112, 50, 172, 188, 244, 0, 130, 0, 127, 0, 0, 127, 219, 50, 0, 0, 196, 200, 17, 190, 221, 55, 161, 60, 136, 238, 171, 188, 244, 0, 130, 0, 127, 0, 0, 127, 146, 52, 0, 0, 4, 166, 209, 189, 88, 103, 191, 188, 207, 204, 204, 188, 142, 201, 0, 0, 0, 0, 127, 129, 25, 36, 146, 57, 1, 32, 168, 189, 71, 19, 134, 189, 209, 204, 204, 188, 142, 201, 0, 0, 0, 0, 127, 129, 251, 43, 205, 56, 1, 32, 168, 189, 71, 19, 134, 189, 36, 34, 187, 60, 142, 201, 0, 0, 0, 0, 126, 129, 83, 56, 205, 56, 4, 166, 209, 189, 90, 103, 191, 188, 126, 33, 187, 60, 142, 201, 0, 0, 0, 0, 127, 129, 233, 55, 146, 57, 231, 96, 144, 189, 199, 19, 253, 189, 97, 75, 154, 60, 96, 174, 0, 0, 174, 161, 245, 127, 146, 44, 150, 55, 231, 96, 144, 189, 2, 37, 253, 189, 171, 37, 172, 188, 96, 174, 0, 0, 127, 0, 0, 129, 146, 44, 0, 0, 195, 154, 58, 189, 145, 190, 193, 189, 209, 204, 204, 188, 96, 174, 0, 0, 174, 161, 245, 127, 146, 44, 0, 0, 195, 154, 58, 189, 145, 190, 193, 189, 211, 33, 187, 60, 96, 174, 0, 0, 174, 161, 245, 127, 146, 44, 167, 55, 195, 154, 58, 189, 145, 190, 193, 189, 209, 204, 204, 188, 249, 246, 130, 0, 127, 0, 0, 127, 146, 44, 0, 0, 231, 96, 144, 189, 2, 37, 253, 189, 171, 37, 172, 188, 249, 246, 130, 0, 127, 0, 0, 127, 146, 44, 0, 0, 134, 51, 219, 189, 102, 215, 202, 189, 84, 251, 171, 188, 249, 246, 130, 0, 127, 0, 0, 127, 146, 48, 0, 0, 1, 32, 168, 189, 71, 19, 134, 189, 209, 204, 204, 188, 249, 246, 130, 0, 127, 0, 0, 127, 146, 48, 0, 0, 208, 212, 17, 60, 249, 153, 18, 190, 140, 89, 154, 60, 23, 132, 0, 0, 132, 233, 0, 127, 0, 60, 150, 55, 208, 212, 17, 60, 151, 162, 18, 190, 15, 24, 172, 188, 23, 132, 0, 0, 132, 233, 0, 127, 0, 60, 0, 0, 3, 16, 95, 61, 156, 168, 9, 190, 242, 8, 172, 188, 23, 132, 0, 0, 132, 233, 0, 127, 109, 59, 0, 0, 3, 16, 95, 61, 254, 159, 9, 190, 211, 104, 154, 60, 23, 132, 0, 0, 132, 233, 0, 127, 109, 59, 150, 55, 15, 60, 170, 61, 216, 177, 129, 189, 203, 204, 204, 60, 11, 251, 126, 0, 201, 142, 0, 127, 211, 58, 0, 56, 65, 16, 240, 61, 40, 232, 156, 189, 95, 222, 173, 60, 11, 251, 126, 0, 139, 45, 12, 129, 211, 58, 0, 56, 117, 141, 10, 62, 185, 27, 56, 189, 253, 234, 173, 60, 11, 251, 126, 0, 201, 142, 0, 127, 81, 58, 255, 55, 29, 138, 207, 61, 203, 235, 208, 188, 205, 204, 204, 60, 11, 251, 126, 0, 201, 142, 0, 127, 80, 58, 0, 56, 227, 59, 170, 61, 52, 178, 129, 61, 209, 204, 204, 60, 11, 5, 126, 0, 127, 0, 0, 129, 44, 57, 0, 56, 14, 138, 207, 61, 75, 236, 208, 60, 207, 204, 204, 60, 11, 5, 126, 0, 127, 0, 0, 129, 175, 57, 0, 56, 237, 141, 10, 62, 107, 63, 56, 61, 187, 183, 173, 60, 11, 5, 126, 0, 127, 0, 0, 129, 174, 57, 0, 56, 242, 16, 240, 61, 7, 250, 156, 61, 120, 16, 174, 60, 11, 5, 126, 0, 127, 0, 0, 129, 44, 57, 0, 56, 202, 154, 58, 189, 143, 190, 193, 61, 183, 34, 187, 60, 231, 111, 54, 0, 124, 18, 19, 129, 254, 56, 186, 59, 101, 49, 66, 189, 249, 183, 190, 61, 209, 204, 204, 60, 231, 111, 54, 0, 124, 18, 19, 129, 42, 57, 171, 59, 88, 82, 23, 59, 240, 245, 213, 61, 209, 204, 204, 60, 231, 111, 54, 0, 124, 19, 17, 129, 7, 58, 221, 59, 74, 195, 138, 50, 62, 10, 215, 61, 28, 35, 187, 60, 231, 111, 54, 0, 124, 19, 17, 129, 211, 57, 235, 59, 15, 60, 170, 61, 216, 177, 129, 189, 203, 204, 204, 60, 71, 167, 54, 0, 159, 224, 73, 127, 121, 59, 219, 56, 156, 35, 49, 61, 24, 211, 194, 189, 201, 204, 204, 60, 71, 167, 54, 0, 152, 201, 45, 127, 200, 58, 78, 56, 207, 154, 58, 61, 142, 190, 193, 189, 75, 34, 187, 60, 71, 167, 54, 0, 152, 201, 46, 127, 169, 58, 69, 56, 3, 32, 168, 61, 67, 19, 134, 189, 114, 33, 187, 60, 71, 167, 54, 0, 159, 225, 75, 127, 84, 59, 205, 56, 14, 138, 207, 61, 75, 236, 208, 60, 207, 204, 204, 60, 114, 0, 54, 0, 207, 55, 103, 127, 208, 59, 113, 58, 29, 138, 207, 61, 203, 235, 208, 188, 205, 204, 204, 60, 114, 0, 54, 0, 208, 197, 101, 127, 208, 59, 142, 57, 4, 166, 209, 61, 80, 103, 191, 188, 245, 33, 187, 60, 114, 0, 54, 0, 208, 199, 102, 127, 179, 59, 146, 57, 4, 166, 209, 61, 83, 103, 191, 60, 2, 34, 187, 60, 114, 0, 54, 0, 209, 61, 100, 127, 179, 59, 109, 58, 13, 36, 49, 61, 11, 211, 194, 61, 209, 204, 204, 60, 71, 89, 54, 0, 152, 53, 48, 127, 200, 58, 177, 59, 227, 59, 170, 61, 52, 178, 129, 61, 209, 204, 204, 60, 71, 89, 54, 0, 158, 35, 71, 127, 121, 59, 36, 59, 3, 32, 168, 61, 67, 19, 134, 61, 48, 34, 187, 60, 71, 89, 54, 0, 157, 35, 71, 127, 84, 59, 50, 59, 209, 154, 58, 61, 142, 190, 193, 61, 18, 35, 187, 60, 71, 89, 54, 0, 152, 54, 46, 127, 169, 58, 186, 59, 4, 166, 209, 189, 87, 103, 191, 60, 231, 33, 187, 60, 153, 49, 54, 0, 57, 252, 113, 129, 233, 55, 109, 58, 4, 166, 209, 189, 247, 242, 171, 60, 205, 204, 204, 60, 153, 49, 54, 0, 57, 250, 113, 129, 44, 56, 99, 58, 208, 83, 164, 189, 147, 26, 137, 61, 207, 204, 204, 60, 153, 49, 54, 0, 73, 69, 76, 129, 142, 56, 47, 59, 1, 32, 168, 189, 71, 19, 134, 61, 161, 34, 187, 60, 153, 49, 54, 0, 73, 72, 73, 129, 83, 56, 50, 59, 1, 32, 168, 189, 71, 19, 134, 189, 36, 34, 187, 60, 153, 207, 54, 0, 73, 185, 74, 129, 83, 56, 205, 56, 194, 83, 164, 189, 158, 26, 137, 189, 201, 204, 204, 60, 153, 207, 54, 0, 73, 183, 72, 129, 142, 56, 208, 56, 4, 166, 209, 189, 179, 241, 171, 188, 203, 204, 204, 60, 153, 207, 54, 0, 56, 7, 113, 129, 44, 56, 156, 57, 4, 166, 209, 189, 90, 103, 191, 188, 126, 33, 187, 60, 153, 207, 54, 0, 54, 12, 114, 129, 233, 55, 146, 57, 195, 154, 58, 189, 145, 190, 193, 189, 211, 33, 187, 60, 231, 145, 54, 0, 124, 238, 19, 129, 254, 56, 69, 56, 193, 174, 164, 47, 62, 10, 215, 189, 55, 34, 187, 60, 231, 145, 54, 0, 124, 237, 17, 129, 211, 57, 20, 56, 160, 91, 23, 59, 223, 245, 213, 189, 201, 204, 204, 60, 231, 145, 54, 0, 124, 237, 17, 129, 7, 58, 34, 56, 241, 49, 66, 189, 192, 183, 190, 189, 201, 204, 204, 60, 231, 145, 54, 0, 124, 238, 19, 129, 42, 57, 84, 56, 38, 137, 47, 60, 36, 236, 15, 190, 61, 230, 173, 60, 17, 165, 86, 0, 132, 232, 0, 127, 248, 59, 0, 56, 208, 212, 17, 60, 249, 153, 18, 190, 140, 89, 154, 60, 17, 165, 86, 0, 132, 232, 0, 127, 0, 60, 150, 55, 3, 16, 95, 61, 254, 159, 9, 190, 211, 104, 154, 60, 17, 165, 86, 0, 132, 233, 0, 127, 109, 59, 150, 55, 128, 146, 83, 61, 221, 218, 7, 190, 112, 224, 173, 60, 17, 165, 86, 0, 132, 233, 0, 127, 117, 59, 0, 56, 193, 174, 164, 47, 62, 10, 215, 189, 55, 34, 187, 60, 175, 228, 93, 0, 228, 123, 12, 127, 0, 60, 167, 55, 208, 212, 17, 60, 249, 153, 18, 190, 140, 89, 154, 60, 175, 228, 93, 0, 227, 122, 11, 127, 0, 60, 150, 55, 38, 137, 47, 60, 36, 236, 15, 190, 61, 230, 173, 60, 175, 228, 93, 0, 227, 122, 11, 127, 248, 59, 0, 56, 160, 91, 23, 59, 223, 245, 213, 189, 201, 204, 204, 60, 175, 228, 93, 0, 228, 123, 12, 127, 248, 59, 0, 56, 128, 146, 83, 61, 221, 218, 7, 190, 112, 224, 173, 60, 85, 9, 93, 0, 26, 133, 245, 127, 117, 59, 0, 56, 3, 16, 95, 61, 254, 159, 9, 190, 211, 104, 154, 60, 85, 9, 93, 0, 26, 133, 245, 127, 109, 59, 150, 55, 207, 154, 58, 61, 142, 190, 193, 189, 75, 34, 187, 60, 85, 9, 93, 0, 27, 133, 244, 127, 109, 59, 167, 55, 156, 35, 49, 61, 24, 211, 194, 189, 201, 204, 204, 60, 85, 9, 93, 0, 27, 133, 244, 127, 117, 59, 0, 56, 65, 16, 240, 61, 40, 232, 156, 189, 95, 222, 173, 60, 80, 210, 86, 0, 194, 146, 0, 127, 211, 58, 0, 56, 179, 238, 241, 61, 241, 209, 162, 189, 137, 65, 154, 60, 80, 210, 86, 0, 194, 146, 0, 127, 219, 58, 150, 55, 90, 186, 13, 62, 130, 66, 52, 189, 39, 127, 154, 60, 80, 210, 86, 0, 193, 146, 0, 127, 73, 58, 150, 55, 117, 141, 10, 62, 185, 27, 56, 189, 253, 234, 173, 60, 80, 210, 86, 0, 193, 146, 0, 127, 81, 58, 255, 55, 3, 32, 168, 61, 67, 19, 134, 189, 114, 33, 187, 60, 234, 173, 92, 0, 139, 45, 12, 127, 219, 58, 167, 55, 179, 238, 241, 61, 241, 209, 162, 189, 137, 65, 154, 60, 234, 173, 92, 0, 138, 44, 11, 127, 219, 58, 150, 55, 65, 16, 240, 61, 40, 232, 156, 189, 95, 222, 173, 60, 234, 173, 92, 0, 138, 44, 11, 127, 211, 58, 0, 56, 15, 60, 170, 61, 216, 177, 129, 189, 203, 204, 204, 60, 234, 173, 92, 0, 139, 45, 13, 127, 211, 58, 0, 56, 29, 138, 207, 61, 203, 235, 208, 188, 205, 204, 204, 60, 50, 69, 93, 0, 109, 192, 246, 127, 80, 58, 0, 56, 117, 141, 10, 62, 185, 27, 56, 189, 253, 234, 173, 60, 50, 69, 93, 0, 109, 194, 244, 127, 81, 58, 255, 55, 90, 186, 13, 62, 130, 66, 52, 189, 39, 127, 154, 60, 50, 69, 93, 0, 109, 194, 244, 127, 73, 58, 150, 55, 4, 166, 209, 61, 80, 103, 191, 188, 245, 33, 187, 60, 50, 69, 93, 0, 109, 192, 246, 127, 73, 58, 167, 55, 237, 141, 10, 62, 107, 63, 56, 61, 187, 183, 173, 60, 80, 45, 86, 0, 62, 146, 0, 127, 174, 57, 0, 56, 90, 186, 13, 62, 28, 99, 52, 61, 155, 66, 154, 60, 80, 45, 86, 0, 62, 146, 0, 127, 182, 57, 150, 55, 178, 238, 241, 61, 60, 226, 162, 61, 159, 127, 154, 60, 80, 45, 86, 0, 63, 146, 0, 127, 36, 57, 150, 55, 242, 16, 240, 61, 7, 250, 156, 61, 120, 16, 174, 60, 80, 45, 86, 0, 63, 146, 0, 127, 44, 57, 0, 56, 14, 138, 207, 61, 75, 236, 208, 60, 207, 204, 204, 60, 50, 187, 93, 0, 147, 192, 11, 127, 175, 57, 0, 56, 4, 166, 209, 61, 83, 103, 191, 60, 2, 34, 187, 60, 50, 187, 93, 0, 147, 192, 10, 127, 182, 57, 167, 55, 90, 186, 13, 62, 28, 99, 52, 61, 155, 66, 154, 60, 50, 187, 93, 0, 147, 194, 12, 127, 182, 57, 150, 55, 237, 141, 10, 62, 107, 63, 56, 61, 187, 183, 173, 60, 50, 187, 93, 0, 147, 194, 12, 127, 174, 57, 0, 56, 3, 32, 168, 61, 67, 19, 134, 61, 48, 34, 187, 60, 234, 83, 92, 0, 117, 45, 244, 127, 36, 57, 167, 55, 227, 59, 170, 61, 52, 178, 129, 61, 209, 204, 204, 60, 234, 83, 92, 0, 117, 45, 244, 127, 44, 57, 0, 56, 242, 16, 240, 61, 7, 250, 156, 61, 120, 16, 174, 60, 234, 83, 92, 0, 118, 44, 245, 127, 44, 57, 0, 56, 178, 238, 241, 61, 60, 226, 162, 61, 159, 127, 154, 60, 234, 83, 92, 0, 118, 44, 245, 127, 36, 57, 150, 55, 148, 138, 47, 60, 192, 245, 15, 62, 38, 242, 173, 60, 17, 91, 86, 0, 124, 232, 0, 127, 7, 56, 0, 56, 215, 147, 83, 61, 114, 228, 7, 62, 234, 210, 173, 60, 17, 91, 86, 0, 124, 233, 0, 127, 138, 56, 0, 56, 6, 16, 95, 61, 37, 168, 9, 62, 86, 91, 154, 60, 17, 91, 86, 0, 124, 233, 0, 127, 146, 56, 150, 55, 228, 212, 17, 60, 32, 162, 18, 62, 90, 106, 154, 60, 17, 91, 86, 0, 124, 232, 0, 127, 255, 55, 150, 55, 13, 36, 49, 61, 11, 211, 194, 61, 209, 204, 204, 60, 85, 247, 93, 0, 230, 133, 11, 127, 138, 56, 0, 56, 209, 154, 58, 61, 142, 190, 193, 61, 18, 35, 187, 60, 85, 247, 93, 0, 230, 133, 11, 127, 146, 56, 167, 55, 6, 16, 95, 61, 37, 168, 9, 62, 86, 91, 154, 60, 85, 247, 93, 0, 229, 133, 12, 127, 146, 56, 150, 55, 215, 147, 83, 61, 114, 228, 7, 62, 234, 210, 173, 60, 85, 247, 93, 0, 229, 133, 12, 127, 138, 56, 0, 56, 74, 195, 138, 50, 62, 10, 215, 61, 28, 35, 187, 60, 175, 28, 93, 0, 28, 123, 244, 127, 255, 55, 167, 55, 88, 82, 23, 59, 240, 245, 213, 61, 209, 204, 204, 60, 175, 28, 93, 0, 28, 123, 244, 127, 7, 56, 0, 56, 148, 138, 47, 60, 192, 245, 15, 62, 38, 242, 173, 60, 175, 28, 93, 0, 29, 122, 245, 127, 7, 56, 0, 56, 228, 212, 17, 60, 32, 162, 18, 62, 90, 106, 154, 60, 175, 28, 93, 0, 29, 122, 245, 127, 255, 55, 150, 55, 135, 51, 219, 189, 119, 214, 202, 61, 14, 77, 154, 60, 205, 77, 86, 0, 105, 70, 0, 127, 182, 53, 150, 55, 34, 119, 212, 189, 138, 225, 201, 61, 220, 188, 173, 60, 205, 77, 86, 0, 105, 70, 0, 127, 198, 53, 0, 56, 107, 109, 145, 189, 150, 244, 246, 61, 107, 12, 174, 60, 205, 77, 86, 0, 105, 70, 0, 127, 203, 54, 0, 56, 235, 96, 144, 189, 17, 36, 253, 61, 43, 119, 154, 60, 205, 77, 86, 0, 105, 70, 0, 127, 219, 54, 150, 55, 107, 109, 145, 189, 150, 244, 246, 61, 107, 12, 174, 60, 58, 63, 93, 0, 83, 161, 12, 127, 203, 54, 0, 56, 101, 49, 66, 189, 249, 183, 190, 61, 209, 204, 204, 60, 58, 63, 93, 0, 82, 161, 13, 127, 204, 54, 0, 56, 202, 154, 58, 189, 143, 190, 193, 61, 183, 34, 187, 60, 58, 63, 93, 0, 82, 161, 13, 127, 219, 54, 167, 55, 235, 96, 144, 189, 17, 36, 253, 61, 43, 119, 154, 60, 58, 63, 93, 0, 83, 161, 11, 127, 219, 54, 150, 55, 135, 51, 219, 189, 119, 214, 202, 61, 14, 77, 154, 60, 183, 213, 93, 0, 181, 101, 244, 127, 182, 53, 150, 55, 1, 32, 168, 189, 71, 19, 134, 61, 161, 34, 187, 60, 183, 213, 93, 0, 182, 102, 246, 127, 182, 53, 167, 55, 208, 83, 164, 189, 147, 26, 137, 61, 207, 204, 204, 60, 183, 213, 93, 0, 182, 102, 246, 127, 197, 53, 0, 56, 34, 119, 212, 189, 138, 225, 201, 61, 220, 188, 173, 60, 183, 213, 93, 0, 181, 101, 244, 127, 198, 53, 0, 56, 196, 200, 17, 190, 197, 124, 161, 60, 111, 130, 154, 60, 164, 0, 86, 0, 0, 126, 0, 127, 146, 52, 150, 55, 196, 200, 17, 190, 153, 59, 161, 188, 96, 62, 154, 60, 164, 0, 86, 0, 0, 126, 0, 127, 219, 50, 150, 55, 184, 129, 15, 190, 219, 130, 143, 188, 119, 198, 173, 60, 164, 0, 86, 0, 0, 126, 0, 127, 253, 50, 0, 56, 169, 129, 15, 190, 205, 200, 143, 60, 125, 254, 173, 60, 164, 0, 86, 0, 0, 126, 0, 127, 129, 52, 0, 56, 196, 200, 17, 190, 197, 124, 161, 60, 111, 130, 154, 60, 240, 84, 93, 0, 125, 11, 12, 127, 146, 52, 150, 55, 169, 129, 15, 190, 205, 200, 143, 60, 125, 254, 173, 60, 240, 84, 93, 0, 125, 11, 12, 127, 129, 52, 0, 56, 4, 166, 209, 189, 247, 242, 171, 60, 205, 204, 204, 60, 240, 84, 93, 0, 125, 12, 11, 127, 131, 52, 0, 56, 4, 166, 209, 189, 87, 103, 191, 60, 231, 33, 187, 60, 240, 84, 93, 0, 125, 12, 11, 127, 146, 52, 167, 55, 196, 200, 17, 190, 153, 59, 161, 188, 96, 62, 154, 60, 239, 172, 93, 0, 131, 11, 244, 127, 219, 50, 150, 55, 4, 166, 209, 189, 90, 103, 191, 188, 126, 33, 187, 60, 239, 172, 93, 0, 131, 13, 245, 127, 219, 50, 167, 55, 4, 166, 209, 189, 179, 241, 171, 188, 203, 204, 204, 60, 239, 172, 93, 0, 131, 12, 245, 127, 249, 50, 0, 56, 184, 129, 15, 190, 219, 130, 143, 188, 119, 198, 173, 60, 239, 172, 93, 0, 131, 11, 244, 127, 253, 50, 0, 56, 134, 51, 219, 189, 43, 198, 202, 189, 34, 118, 154, 60, 205, 179, 86, 0, 151, 70, 0, 127, 146, 48, 150, 55, 231, 96, 144, 189, 199, 19, 253, 189, 97, 75, 154, 60, 205, 179, 86, 0, 151, 70, 0, 127, 146, 44, 150, 55, 155, 108, 145, 189, 237, 225, 246, 189, 212, 233, 173, 60, 205, 179, 86, 0, 151, 70, 0, 127, 208, 44, 0, 56, 251, 117, 212, 189, 245, 206, 201, 189, 12, 225, 173, 60, 205, 179, 86, 0, 151, 70, 0, 127, 115, 48, 0, 56, 1, 32, 168, 189, 71, 19, 134, 189, 36, 34, 187, 60, 183, 43, 93, 0, 75, 101, 12, 127, 146, 48, 167, 55, 134, 51, 219, 189, 43, 198, 202, 189, 34, 118, 154, 60, 183, 43, 93, 0, 74, 102, 11, 127, 146, 48, 150, 55, 251, 117, 212, 189, 245, 206, 201, 189, 12, 225, 173, 60, 183, 43, 93, 0, 74, 102, 11, 127, 115, 48, 0, 56, 194, 83, 164, 189, 158, 26, 137, 189, 201, 204, 204, 60, 183, 43, 93, 0, 75, 101, 12, 127, 116, 48, 0, 56, 155, 108, 145, 189, 237, 225, 246, 189, 212, 233, 173, 60, 58, 193, 93, 0, 173, 161, 244, 127, 208, 44, 0, 56, 231, 96, 144, 189, 199, 19, 253, 189, 97, 75, 154, 60, 58, 193, 93, 0, 173, 162, 244, 127, 146, 44, 150, 55, 195, 154, 58, 189, 145, 190, 193, 189, 211, 33, 187, 60, 58, 193, 93, 0, 174, 161, 243, 127, 146, 44, 167, 55, 241, 49, 66, 189, 192, 183, 190, 189, 201, 204, 204, 60, 58, 193, 93, 0, 174, 161, 243, 127, 205, 44, 0, 56, 160, 91, 23, 59, 223, 245, 213, 189, 201, 204, 204, 60, 2, 244, 126, 0, 127, 0, 0, 129, 248, 59, 0, 56, 38, 137, 47, 60, 36, 236, 15, 190, 61, 230, 173, 60, 2, 244, 126, 0, 127, 0, 0, 129, 248, 59, 0, 56, 128, 146, 83, 61, 221, 218, 7, 190, 112, 224, 173, 60, 2, 244, 126, 0, 127, 0, 0, 129, 117, 59, 0, 56, 156, 35, 49, 61, 24, 211, 194, 189, 201, 204, 204, 60, 2, 244, 126, 0, 127, 0, 0, 129, 117, 59, 0, 56 ),
"array_index_data": PoolByteArray( 0, 0, 2, 0, 1, 0, 0, 0, 3, 0, 2, 0, 4, 0, 3, 0, 0, 0, 4, 0, 5, 0, 3, 0, 6, 0, 5, 0, 4, 0, 6, 0, 7, 0, 5, 0, 8, 0, 7, 0, 6, 0, 9, 0, 7, 0, 8, 0, 9, 0, 10, 0, 7, 0, 11, 0, 10, 0, 9, 0, 11, 0, 12, 0, 10, 0, 13, 0, 12, 0, 11, 0, 14, 0, 16, 0, 15, 0, 14, 0, 17, 0, 16, 0, 18, 0, 17, 0, 14, 0, 19, 0, 17, 0, 18, 0, 19, 0, 20, 0, 17, 0, 19, 0, 21, 0, 20, 0, 22, 0, 21, 0, 19, 0, 23, 0, 21, 0, 22, 0, 23, 0, 24, 0, 21, 0, 23, 0, 25, 0, 24, 0, 26, 0, 25, 0, 23, 0, 27, 0, 25, 0, 26, 0, 28, 0, 30, 0, 29, 0, 28, 0, 31, 0, 30, 0, 32, 0, 34, 0, 33, 0, 35, 0, 34, 0, 32, 0, 36, 0, 38, 0, 37, 0, 39, 0, 38, 0, 36, 0, 40, 0, 42, 0, 41, 0, 40, 0, 43, 0, 42, 0, 44, 0, 46, 0, 45, 0, 47, 0, 46, 0, 44, 0, 48, 0, 50, 0, 49, 0, 51, 0, 50, 0, 48, 0, 52, 0, 54, 0, 53, 0, 52, 0, 55, 0, 54, 0, 56, 0, 58, 0, 57, 0, 56, 0, 59, 0, 58, 0, 60, 0, 62, 0, 61, 0, 60, 0, 63, 0, 62, 0, 64, 0, 66, 0, 65, 0, 64, 0, 67, 0, 66, 0, 68, 0, 70, 0, 69, 0, 68, 0, 71, 0, 70, 0, 72, 0, 74, 0, 73, 0, 75, 0, 74, 0, 72, 0, 76, 0, 78, 0, 77, 0, 76, 0, 79, 0, 78, 0, 80, 0, 82, 0, 81, 0, 83, 0, 82, 0, 80, 0, 84, 0, 86, 0, 85, 0, 84, 0, 87, 0, 86, 0, 88, 0, 90, 0, 89, 0, 91, 0, 90, 0, 88, 0, 92, 0, 94, 0, 93, 0, 95, 0, 94, 0, 92, 0, 96, 0, 98, 0, 97, 0, 96, 0, 99, 0, 98, 0, 100, 0, 102, 0, 101, 0, 100, 0, 103, 0, 102, 0, 104, 0, 106, 0, 105, 0, 107, 0, 106, 0, 104, 0, 108, 0, 110, 0, 109, 0, 111, 0, 110, 0, 108, 0, 112, 0, 114, 0, 113, 0, 115, 0, 114, 0, 112, 0, 116, 0, 118, 0, 117, 0, 116, 0, 119, 0, 118, 0, 120, 0, 122, 0, 121, 0, 123, 0, 122, 0, 120, 0, 124, 0, 126, 0, 125, 0, 124, 0, 127, 0, 126, 0, 128, 0, 130, 0, 129, 0, 128, 0, 131, 0, 130, 0, 132, 0, 134, 0, 133, 0, 132, 0, 135, 0, 134, 0, 136, 0, 138, 0, 137, 0, 136, 0, 139, 0, 138, 0, 140, 0, 142, 0, 141, 0, 140, 0, 143, 0, 142, 0, 144, 0, 146, 0, 145, 0, 147, 0, 146, 0, 144, 0, 148, 0, 150, 0, 149, 0, 151, 0, 150, 0, 148, 0, 152, 0, 154, 0, 153, 0, 152, 0, 155, 0, 154, 0, 156, 0, 158, 0, 157, 0, 156, 0, 159, 0, 158, 0, 160, 0, 162, 0, 161, 0, 163, 0, 162, 0, 160, 0, 164, 0, 166, 0, 165, 0, 164, 0, 167, 0, 166, 0, 168, 0, 170, 0, 169, 0, 168, 0, 171, 0, 170, 0, 172, 0, 174, 0, 173, 0, 175, 0, 174, 0, 172, 0, 176, 0, 178, 0, 177, 0, 176, 0, 179, 0, 178, 0, 180, 0, 182, 0, 181, 0, 183, 0, 182, 0, 180, 0, 184, 0, 186, 0, 185, 0, 187, 0, 186, 0, 184, 0, 188, 0, 190, 0, 189, 0, 188, 0, 191, 0, 190, 0, 192, 0, 194, 0, 193, 0, 195, 0, 194, 0, 192, 0, 196, 0, 198, 0, 197, 0, 196, 0, 199, 0, 198, 0, 200, 0, 202, 0, 201, 0, 200, 0, 203, 0, 202, 0, 204, 0, 206, 0, 205, 0, 204, 0, 207, 0, 206, 0, 208, 0, 210, 0, 209, 0, 211, 0, 210, 0, 208, 0, 212, 0, 214, 0, 213, 0, 215, 0, 214, 0, 212, 0, 216, 0, 218, 0, 217, 0, 216, 0, 219, 0, 218, 0, 220, 0, 222, 0, 221, 0, 223, 0, 222, 0, 220, 0, 224, 0, 226, 0, 225, 0, 224, 0, 227, 0, 226, 0, 228, 0, 230, 0, 229, 0, 231, 0, 230, 0, 228, 0, 232, 0, 234, 0, 233, 0, 235, 0, 234, 0, 232, 0, 236, 0, 238, 0, 237, 0, 236, 0, 239, 0, 238, 0, 240, 0, 242, 0, 241, 0, 240, 0, 243, 0, 242, 0, 244, 0, 246, 0, 245, 0, 247, 0, 246, 0, 244, 0, 248, 0, 250, 0, 249, 0, 251, 0, 250, 0, 248, 0, 252, 0, 254, 0, 253, 0, 255, 0, 254, 0, 252, 0, 0, 1, 2, 1, 1, 1, 0, 1, 3, 1, 2, 1, 4, 1, 6, 1, 5, 1, 7, 1, 6, 1, 4, 1, 8, 1, 10, 1, 9, 1, 11, 1, 10, 1, 8, 1, 12, 1, 14, 1, 13, 1, 15, 1, 14, 1, 12, 1, 16, 1, 18, 1, 17, 1, 16, 1, 19, 1, 18, 1, 20, 1, 22, 1, 21, 1, 20, 1, 23, 1, 22, 1, 24, 1, 26, 1, 25, 1, 24, 1, 27, 1, 26, 1, 28, 1, 30, 1, 29, 1, 31, 1, 30, 1, 28, 1, 32, 1, 34, 1, 33, 1, 32, 1, 35, 1, 34, 1, 36, 1, 38, 1, 37, 1, 36, 1, 39, 1, 38, 1, 40, 1, 42, 1, 41, 1, 40, 1, 43, 1, 42, 1, 44, 1, 46, 1, 45, 1, 47, 1, 46, 1, 44, 1, 48, 1, 50, 1, 49, 1, 48, 1, 51, 1, 50, 1 ),
"blend_shape_data": [  ],
"format": 97559,
"index_count": 492,
"primitive": 4,
"skeleton_aabb": [  ],
"vertex_count": 308
}

[node name="corner" type="Spatial"]

[node name="Corner" type="MeshInstance" parent="."]
transform = Transform( 5.96046e-08, 0, -1, 0, 1, 0, 1, 0, 5.96046e-08, -0.000794725, 0, 0.00136475 )
mesh = SubResource( 1 )
material/0 = null

[node name="Gear" type="MeshInstance" parent="."]
transform = Transform( -0.707107, 0, 0.707107, 0, 1, 0, -0.707107, 0, -0.707107, 0.0084939, -0.0459662, -0.0106534 )
cast_shadow = 0
mesh = SubResource( 2 )
material/0 = null
