[gd_resource type="Theme" load_steps=5 format=2]

[sub_resource type="StyleBoxFlat" id=1]
bg_color = Color( 0.6, 0.6, 0.6, 0 )

[sub_resource type="StyleBoxFlat" id=2]
bg_color = Color( 0.258824, 0.247059, 0.247059, 1 )
corner_detail = 1

[sub_resource type="StyleBoxFlat" id=3]
bg_color = Color( 0.309804, 0.341176, 0.352941, 1 )

[sub_resource type="StyleBoxFlat" id=4]
content_margin_left = 5.0
content_margin_right = 5.0
content_margin_bottom = 5.0
bg_color = Color( 0.309804, 0.341176, 0.352941, 1 )
corner_detail = 1

[resource]
CheckButton/colors/font_color = Color( 0.88, 0.88, 0.88, 1 )
CheckButton/colors/font_color_disabled = Color( 0.9, 0.9, 0.9, 0.2 )
CheckButton/colors/font_color_hover = Color( 0.94, 0.94, 0.94, 1 )
CheckButton/colors/font_color_hover_pressed = Color( 1, 1, 1, 1 )
CheckButton/colors/font_color_pressed = Color( 1, 1, 1, 1 )
CheckButton/constants/check_vadjust = 0
CheckButton/constants/hseparation = 4
CheckButton/fonts/font = null
CheckButton/icons/off = null
CheckButton/icons/off_disabled = null
CheckButton/icons/on = null
CheckButton/icons/on_disabled = null
CheckButton/styles/disabled = null
CheckButton/styles/focus = SubResource( 1 )
CheckButton/styles/hover = null
CheckButton/styles/hover_pressed = null
CheckButton/styles/normal = null
CheckButton/styles/pressed = null
Panel/styles/panel = SubResource( 2 )
PanelContainer/styles/panel = SubResource( 3 )
PopupMenu/styles/panel = SubResource( 4 )
